[
 {
  "CREATED_AT": "Wed Feb 10 08:48:47 +0000 2021",
  "ID_STR": "1359424059826524160",
  "FULL_TEXT": "@danawallet Min cek dm",
  "USER": "voerif"
 },
 {
  "CREATED_AT": "Wed Feb 10 08:45:34 +0000 2021",
  "ID_STR": "1359423248832757760",
  "FULL_TEXT": "@danawallet @andini_intan_ @DenFM85 Sepertinya nya Dana Wallet banyak complain berulang, semoga menjadi masukan untuk peningkatan pelayanan complain handling kedepan.",
  "USER": "mucharam"
 },
 {
  "CREATED_AT": "Wed Feb 10 08:27:01 +0000 2021",
  "ID_STR": "1359418583378395136",
  "FULL_TEXT": "RT @danawallet: Imlekan sebentar lagi, #XiapCuan pastinya🏮 Oiya, share yuk di komen, makanan imlek apa yang wajib versi kamuuu? Dari yang m…",
  "USER": "KurniawanRicho"
 },
 {
  "CREATED_AT": "Wed Feb 10 08:20:03 +0000 2021",
  "ID_STR": "1359416830134132736",
  "FULL_TEXT": "@ourpanpans @danawallet Beberapa?? 😭",
  "USER": "pitikjualan"
 },
 {
  "CREATED_AT": "Wed Feb 10 08:19:15 +0000 2021",
  "ID_STR": "1359416626756526085",
  "FULL_TEXT": "@danawallet Seharusnya jika ada perubahan seperti ini di informasikan terlebih dahulu kepada Mitra DANA Bisnis. Klo ane tidak masalahin hal tsb, tapi kasihan saja UMKM kecil karena modalnya di endapkan hingga H+2 oleh DANA Bisnis.",
  "USER": "tomy_adhii"
 },
 {
  "CREATED_AT": "Wed Feb 10 08:16:58 +0000 2021",
  "ID_STR": "1359416053705547782",
  "FULL_TEXT": "@ourpanpans Masih kena beku sama @danawallet",
  "USER": "pitikjualan"
 },
 {
  "CREATED_AT": "Wed Feb 10 08:02:23 +0000 2021",
  "ID_STR": "1359412384142487557",
  "FULL_TEXT": "@danawallet Cek dm min please",
  "USER": "lukitomemo"
 },
 {
  "CREATED_AT": "Wed Feb 10 07:58:10 +0000 2021",
  "ID_STR": "1359411322597769219",
  "FULL_TEXT": "@andini_intan_ @danawallet Balikin woiiiii",
  "USER": "DenFM85"
 },
 {
  "CREATED_AT": "Wed Feb 10 07:57:09 +0000 2021",
  "ID_STR": "1359411065260417029",
  "FULL_TEXT": "@AtapMiring @andini_intan_ @danawallet Setuju",
  "USER": "DenFM85"
 },
 {
  "CREATED_AT": "Wed Feb 10 07:54:19 +0000 2021",
  "ID_STR": "1359410353797427202",
  "FULL_TEXT": "Kaget \u0026amp; tanpa pemberitahuan sama sekali bahwa pemrosesan saldo di tahan sampai bisa di tarik DANA Bisnis dari QRIS lain saat ini proses nya minimal 2x24 jam. \nSangat merugikan sekali apalagi untuk UMKM kecil yang modal ngepas \u0026amp; hanya andalkan QRIS DANA ! @danawallet @danasupport https://t.co/dFNbOsZkR7",
  "USER": "tomy_adhii"
 },
 {
  "CREATED_AT": "Wed Feb 10 07:53:19 +0000 2021",
  "ID_STR": "1359410102495711232",
  "FULL_TEXT": "@danawallet Belum di bales kak malah ada masalah lain",
  "USER": "kickyowon"
 },
 {
  "CREATED_AT": "Wed Feb 10 07:52:06 +0000 2021",
  "ID_STR": "1359409794243653633",
  "FULL_TEXT": "RT @andini_intan_: Gilak\nTiap pagi kudu pusing urusan ma lu @danawallet \n2 juta duit g sedikit woy, itu seluruh duit yg gw pny. Laki gw blm…",
  "USER": "Panyampado"
 },
 {
  "CREATED_AT": "Wed Feb 10 07:52:04 +0000 2021",
  "ID_STR": "1359409785502715908",
  "FULL_TEXT": "@Kematia78104047 @andini_intan_ @humaira979 @danawallet Iya tiap hari buka twitter adaa aja yg duitnya ditahan2 sm @danawallet..bahaya banget",
  "USER": "bayudwil"
 },
 {
  "CREATED_AT": "Wed Feb 10 07:48:50 +0000 2021",
  "ID_STR": "1359408971736518656",
  "FULL_TEXT": "@danawallet Cek dm, maaf y",
  "USER": "faisalf1101"
 },
 {
  "CREATED_AT": "Wed Feb 10 07:48:04 +0000 2021",
  "ID_STR": "1359408778601369602",
  "FULL_TEXT": "@andini_intan_ @danawallet Ternyata bahaya ya nyimpen duit di @danawallet tiap hari klo liat timeljne adaa aja yg komplen duitnya ga bs dipake..gak cuma mba @andini_intan_ aja. Sama aja Ngembat duit org",
  "USER": "bayudwil"
 },
 {
  "CREATED_AT": "Wed Feb 10 07:44:34 +0000 2021",
  "ID_STR": "1359407900402225152",
  "FULL_TEXT": "@danawallet Udah didm yaa min",
  "USER": "stlobelismuti"
 },
 {
  "CREATED_AT": "Wed Feb 10 07:40:46 +0000 2021",
  "ID_STR": "1359406945145212933",
  "FULL_TEXT": "@danawallet Sudah aku dm kak",
  "USER": "faisalf1101"
 },
 {
  "CREATED_AT": "Wed Feb 10 07:40:26 +0000 2021",
  "ID_STR": "1359406860369940480",
  "FULL_TEXT": "@danawallet Baik kak",
  "USER": "kickyowon"
 },
 {
  "CREATED_AT": "Wed Feb 10 07:40:04 +0000 2021",
  "ID_STR": "1359406765582864390",
  "FULL_TEXT": "@danawallet miin tolong cek dm yaa. Makasiihh",
  "USER": "stlobelismuti"
 },
 {
  "CREATED_AT": "Wed Feb 10 07:33:46 +0000 2021",
  "ID_STR": "1359405181771780096",
  "FULL_TEXT": "@danawallet selamat siang, admin. Mau tanya. Saya mau login seharian ini kok gak bisa ya? Tolong bantuannya. Trims. https://t.co/3dF3ZTEbOt",
  "USER": "stlobelismuti"
 },
 {
  "CREATED_AT": "Wed Feb 10 07:22:04 +0000 2021",
  "ID_STR": "1359402237747896322",
  "FULL_TEXT": "@danawallet ya tuhan ya rabbi kapan mau balikin dana ku? 😭😭",
  "USER": "jihoonswifeu_"
 },
 {
  "CREATED_AT": "Wed Feb 10 07:19:04 +0000 2021",
  "ID_STR": "1359401483653947403",
  "FULL_TEXT": "@danawallet miiin cek dm",
  "USER": "faisalf1101"
 },
 {
  "CREATED_AT": "Wed Feb 10 07:07:18 +0000 2021",
  "ID_STR": "1359398521439330305",
  "FULL_TEXT": "@danawallet Udah ksk",
  "USER": "kickyowon"
 },
 {
  "CREATED_AT": "Wed Feb 10 07:01:44 +0000 2021",
  "ID_STR": "1359397120294354944",
  "FULL_TEXT": "@danawallet cek dm ka",
  "USER": "fitriahdsd"
 },
 {
  "CREATED_AT": "Wed Feb 10 06:56:06 +0000 2021",
  "ID_STR": "1359395702128799747",
  "FULL_TEXT": "@danawallet kenapa verifikasi email dana ga masuk ke email kak?",
  "USER": "fitriahdsd"
 },
 {
  "CREATED_AT": "Wed Feb 10 06:54:12 +0000 2021",
  "ID_STR": "1359395224489926657",
  "FULL_TEXT": "@danawallet kak kenapa verifikasi email dana ga masuk??",
  "USER": "fitriahdsd"
 },
 {
  "CREATED_AT": "Wed Feb 10 06:50:02 +0000 2021",
  "ID_STR": "1359394174601097216",
  "FULL_TEXT": "@mojdtinkerbell @andihiyat @danawallet Wah, makasih ya kak udah setia jadi nasabah PermataBank 😉",
  "USER": "PermataBank"
 },
 {
  "CREATED_AT": "Wed Feb 10 06:47:16 +0000 2021",
  "ID_STR": "1359393477566418945",
  "FULL_TEXT": "@danawallet Terus pihak DANA kan sudah tahu akun saya di salahgunakan oleh orang lain dan data2 saya sudah diberikan secara real kepada pihak DANA, tapi koq sampai saat ini akun saya ga balik2 lagi sih ke akun saya?",
  "USER": "TaKbuZi"
 },
 {
  "CREATED_AT": "Wed Feb 10 06:43:34 +0000 2021",
  "ID_STR": "1359392546888142849",
  "FULL_TEXT": "@danawallet cek dm kak",
  "USER": "affi_mj"
 },
 {
  "CREATED_AT": "Wed Feb 10 06:43:12 +0000 2021",
  "ID_STR": "1359392456861573122",
  "FULL_TEXT": "@danawallet min cek dm dong:(",
  "USER": "bluberv"
 },
 {
  "CREATED_AT": "Wed Feb 10 06:40:49 +0000 2021",
  "ID_STR": "1359391856912519174",
  "FULL_TEXT": "@danawallet Cek DM min",
  "USER": "affi_mj"
 },
 {
  "CREATED_AT": "Wed Feb 10 06:32:55 +0000 2021",
  "ID_STR": "1359389869487783937",
  "FULL_TEXT": "@danawallet Kak, kalo ganti nomor itu gamapang atau susah sih? Sama susahnya dengan masalah saya?",
  "USER": "TaKbuZi"
 },
 {
  "CREATED_AT": "Wed Feb 10 06:30:32 +0000 2021",
  "ID_STR": "1359389266623688704",
  "FULL_TEXT": "@danawallet Udah aku bales ga dibales lagi min 😔🤙🏻",
  "USER": "dovmba"
 },
 {
  "CREATED_AT": "Wed Feb 10 06:22:11 +0000 2021",
  "ID_STR": "1359387166791532547",
  "FULL_TEXT": "RT @MediaKonsumenID: Saldo DANA Dibekukan, Respon Pihak DANA Lamban - https://t.co/YxGqBplbTS | cc @danawallet",
  "USER": "joesukasuka"
 },
 {
  "CREATED_AT": "Wed Feb 10 05:57:39 +0000 2021",
  "ID_STR": "1359380995200323584",
  "FULL_TEXT": "@danawallet @MediaKonsumenID Keyboardnya rusak kali ya, belepotan banget..",
  "USER": "cah_bagoez"
 },
 {
  "CREATED_AT": "Wed Feb 10 05:53:58 +0000 2021",
  "ID_STR": "1359380066350682114",
  "FULL_TEXT": "@roda4lucky78 @danawallet @andini_intan_ Betul gan, skrang udah ga pernah pake dana pas lagi urgent top up malah ke pending lama..",
  "USER": "cah_bagoez"
 },
 {
  "CREATED_AT": "Wed Feb 10 05:53:03 +0000 2021",
  "ID_STR": "1359379835605295108",
  "FULL_TEXT": "@andini_intan_ @danawallet Jangan khawatir gimana @danawallet klo duit orang ga lu balikin.. ngeri eui skrang pake dana, ga jelas..",
  "USER": "cah_bagoez"
 },
 {
  "CREATED_AT": "Wed Feb 10 05:52:25 +0000 2021",
  "ID_STR": "1359379675366105091",
  "FULL_TEXT": "@AndeiraW @danawallet Emang kayanya gitu kak, konfirmasi aja sm dana/jenius tp pelayanannya lama",
  "USER": "Kokua_id"
 },
 {
  "CREATED_AT": "Wed Feb 10 05:50:55 +0000 2021",
  "ID_STR": "1359379300235923463",
  "FULL_TEXT": "@delliagisti @danawallet Iyaa ada sih teh 😄",
  "USER": "queenaraaaaaa_"
 },
 {
  "CREATED_AT": "Wed Feb 10 05:49:57 +0000 2021",
  "ID_STR": "1359379054948798466",
  "FULL_TEXT": "RT @danawallet: @duitologi Betul sekali kak, bersama DANA transaksi online/mau pun offline jadi aman karena ada  fitur Face Verification…",
  "USER": "duitologi"
 },
 {
  "CREATED_AT": "Wed Feb 10 05:35:43 +0000 2021",
  "ID_STR": "1359375473625632768",
  "FULL_TEXT": "@danawallet mau nunggu sampe kapan? \nmasa hampir mau 2 bulan gaada perubahan apapun",
  "USER": "marimoeh"
 },
 {
  "CREATED_AT": "Wed Feb 10 05:32:54 +0000 2021",
  "ID_STR": "1359374763047546880",
  "FULL_TEXT": "RT @danawallet: Hayuk, yang mau #XiapCuan merapat! Caranya gampang, Kirim Uang ajaaa bisa dapat DANA Angpao berupa EMAS \u0026amp; Cashback hingga R…",
  "USER": "KurniawanRicho"
 },
 {
  "CREATED_AT": "Wed Feb 10 05:21:03 +0000 2021",
  "ID_STR": "1359371781186834438",
  "FULL_TEXT": "@funkyho3 @danawallet @dtyya maap jb, udah dapet verif via vidcall nya belom ?",
  "USER": "AndeiraW"
 },
 {
  "CREATED_AT": "Wed Feb 10 05:20:13 +0000 2021",
  "ID_STR": "1359371571907883017",
  "FULL_TEXT": "@Kokua_id @danawallet maaf jbjb, pending apa gimana ka kalo boleh tau",
  "USER": "AndeiraW"
 },
 {
  "CREATED_AT": "Wed Feb 10 05:17:09 +0000 2021",
  "ID_STR": "1359370800285945856",
  "FULL_TEXT": "@GrahaRaya_ @danawallet fyi lagi perbaikan sistem dari bri nya kata admin nya",
  "USER": "karinavocadoo"
 },
 {
  "CREATED_AT": "Wed Feb 10 05:03:06 +0000 2021",
  "ID_STR": "1359367265930469376",
  "FULL_TEXT": "@danawallet cek deem dong min :(",
  "USER": "dovmba"
 },
 {
  "CREATED_AT": "Wed Feb 10 05:00:42 +0000 2021",
  "ID_STR": "1359366661585788928",
  "FULL_TEXT": "@danawallet udah min  cdm lg",
  "USER": "pjaeby"
 },
 {
  "CREATED_AT": "Wed Feb 10 04:48:38 +0000 2021",
  "ID_STR": "1359363625761185812",
  "FULL_TEXT": "@danawallet Konfirmasi si konfirmasi, sampai saat ini belom slesai refund saya min🙂",
  "USER": "akulagikesal"
 },
 {
  "CREATED_AT": "Wed Feb 10 04:47:25 +0000 2021",
  "ID_STR": "1359363318847164417",
  "FULL_TEXT": "@danawallet cek dm kak",
  "USER": "eksntyas"
 },
 {
  "CREATED_AT": "Wed Feb 10 04:40:21 +0000 2021",
  "ID_STR": "1359361541649223681",
  "FULL_TEXT": "Setelah thread diatas, aku langsung ditelepon sama pihak @danawallet ditanggal 4 Februari",
  "USER": "akulagikesal"
 },
 {
  "CREATED_AT": "Wed Feb 10 04:40:21 +0000 2021",
  "ID_STR": "1359361538990108675",
  "FULL_TEXT": "Postingan ini aku dedikasikan untuk @danawallet @danasupport 🙂🙂🙂 https://t.co/09MmU4H2HP",
  "USER": "akulagikesal"
 },
 {
  "CREATED_AT": "Wed Feb 10 04:32:46 +0000 2021",
  "ID_STR": "1359359630590181379",
  "FULL_TEXT": "Dah di DM gak balas2 gimana ini @danawallet @danasupport https://t.co/u97aQLemUX",
  "USER": "vay_thea"
 },
 {
  "CREATED_AT": "Wed Feb 10 04:19:53 +0000 2021",
  "ID_STR": "1359356387587854342",
  "FULL_TEXT": "Udah di DM gak ada lanjutan lagi, ini boot ya? @danawallet @danasupport https://t.co/u97aQLemUX",
  "USER": "vay_thea"
 },
 {
  "CREATED_AT": "Wed Feb 10 04:04:43 +0000 2021",
  "ID_STR": "1359352573946302464",
  "FULL_TEXT": "@danawallet @MediaKonsumenID Nulis apesi lu? :|",
  "USER": "itsasdani"
 },
 {
  "CREATED_AT": "Wed Feb 10 03:46:51 +0000 2021",
  "ID_STR": "1359348077660807170",
  "FULL_TEXT": "@danawallet Tolong cek dm dong, kak. Makasih",
  "USER": "avivanura"
 },
 {
  "CREATED_AT": "Wed Feb 10 03:46:02 +0000 2021",
  "ID_STR": "1359347871691153408",
  "FULL_TEXT": "@danawallet udh di dm cuma belum di read🙂",
  "USER": "inferiorprsn"
 },
 {
  "CREATED_AT": "Wed Feb 10 03:38:29 +0000 2021",
  "ID_STR": "1359345971331698691",
  "FULL_TEXT": "pagi kak, maaf saya mau tanya kalau saya salah mengirim uang tp nomor dana nya tidak bisa dihubungi apa bisa diproses refund dari pusat? terima kasih @danawallet",
  "USER": "inferiorprsn"
 },
 {
  "CREATED_AT": "Wed Feb 10 03:36:52 +0000 2021",
  "ID_STR": "1359345562928041986",
  "FULL_TEXT": "@queenaraaaaaa_ @danawallet Flip tetep ada kode unik di belakangnya gak siii? Aku bener2 team gakmau rugi😂😂",
  "USER": "delliagisti"
 },
 {
  "CREATED_AT": "Wed Feb 10 03:26:57 +0000 2021",
  "ID_STR": "1359343069347237892",
  "FULL_TEXT": "@danawallet Udah saya DM",
  "USER": "vay_thea"
 },
 {
  "CREATED_AT": "Wed Feb 10 03:21:50 +0000 2021",
  "ID_STR": "1359341780102041603",
  "FULL_TEXT": "@danawallet penasaran aja kak cek DM",
  "USER": "skpdcell3"
 },
 {
  "CREATED_AT": "Wed Feb 10 03:10:47 +0000 2021",
  "ID_STR": "1359339000440393728",
  "FULL_TEXT": "@danawallet Udah dm min, cek dong",
  "USER": "dovmba"
 },
 {
  "CREATED_AT": "Wed Feb 10 03:09:23 +0000 2021",
  "ID_STR": "1359338645979762689",
  "FULL_TEXT": "@danawallet tolong baca dm nya yaaa",
  "USER": "inferiorprsn"
 },
 {
  "CREATED_AT": "Wed Feb 10 03:08:33 +0000 2021",
  "ID_STR": "1359338436591718402",
  "FULL_TEXT": "@danawallet customer care nya kok gak bisa dihubungi ya? Saya gak bisa transfer ke bank katanya alasan keamanan, diminta hubungi customer tapi gak ada yg respons",
  "USER": "vay_thea"
 },
 {
  "CREATED_AT": "Wed Feb 10 03:03:36 +0000 2021",
  "ID_STR": "1359337190480769029",
  "FULL_TEXT": "@delliagisti @danawallet Aku tim flip 😂",
  "USER": "queenaraaaaaa_"
 },
 {
  "CREATED_AT": "Wed Feb 10 02:58:18 +0000 2021",
  "ID_STR": "1359335858113945600",
  "FULL_TEXT": "@uwjong @danawallet Okayy kaa makasih infonyaa",
  "USER": "dovmba"
 },
 {
  "CREATED_AT": "Wed Feb 10 02:56:55 +0000 2021",
  "ID_STR": "1359335508988420099",
  "FULL_TEXT": "@dovmba langsung dm @danawallet aja kak nanti dibantuu",
  "USER": "uwjong"
 },
 {
  "CREATED_AT": "Wed Feb 10 02:55:09 +0000 2021",
  "ID_STR": "1359335065965060098",
  "FULL_TEXT": "Alasanku pake @danawallet 👌👌 https://t.co/gagxpwvrk8",
  "USER": "delliagisti"
 },
 {
  "CREATED_AT": "Wed Feb 10 02:50:06 +0000 2021",
  "ID_STR": "1359333795447545857",
  "FULL_TEXT": "@mojdtinkerbell @andihiyat @danawallet @PermataBank asli si ini mah wkwkw",
  "USER": "namiruu_"
 },
 {
  "CREATED_AT": "Wed Feb 10 02:34:27 +0000 2021",
  "ID_STR": "1359329854609498116",
  "FULL_TEXT": "Dear @ask_AXIS dan @danawallet \nMohon bantuan untuk blokir akun ini, karena yang bersangkutan telah melakukan penipuan bajak WA dan minta transfer sejumlah uang.\nNo telp-nya, 083803306469.\nCc: @TMCPoldaMetro ,@detikcom \nTolong bantu retweet guys !\n#penipuan #bajakwa https://t.co/Hy8iMwDTiW",
  "USER": "wibisonoagung"
 },
 {
  "CREATED_AT": "Wed Feb 10 01:56:06 +0000 2021",
  "ID_STR": "1359320206057762820",
  "FULL_TEXT": "43 hari dana error, yok semangat yok tim resolusi dana 🤸‍♀️ semangat juga untuk diriku harus bersabar, \"ditunggu update selanjutnya kack\" @danawallet",
  "USER": "icekeulim"
 },
 {
  "CREATED_AT": "Wed Feb 10 01:53:10 +0000 2021",
  "ID_STR": "1359319468623630336",
  "FULL_TEXT": "@danawallet cek dm min",
  "USER": "alfayudit03"
 },
 {
  "CREATED_AT": "Wed Feb 10 01:24:36 +0000 2021",
  "ID_STR": "1359312276256419850",
  "FULL_TEXT": "Saldo DANA Dibekukan, Respon Pihak DANA Lamban - https://t.co/YxGqBplbTS | cc @danawallet",
  "USER": "MediaKonsumenID"
 },
 {
  "CREATED_AT": "Wed Feb 10 00:58:58 +0000 2021",
  "ID_STR": "1359305826188468225",
  "FULL_TEXT": "Sambut Imlek, DANA XiapCuan Bagi-bagi Angpao Senilai 500 Juta -- https://t.co/WCh0fxDBOW\n\n@danawallet",
  "USER": "teknogav"
 },
 {
  "CREATED_AT": "Wed Feb 10 00:34:48 +0000 2021",
  "ID_STR": "1359299744825106443",
  "FULL_TEXT": "@danawallet Cek DM Kak.",
  "USER": "TaKbuZi"
 },
 {
  "CREATED_AT": "Wed Feb 10 00:31:40 +0000 2021",
  "ID_STR": "1359298956476313603",
  "FULL_TEXT": "@danawallet cek DM ya",
  "USER": "shxx_lxvana"
 },
 {
  "CREATED_AT": "Tue Feb 09 23:26:52 +0000 2021",
  "ID_STR": "1359282649525719044",
  "FULL_TEXT": "RT @andini_intan_: Gilak\nTiap pagi kudu pusing urusan ma lu @danawallet \n2 juta duit g sedikit woy, itu seluruh duit yg gw pny. Laki gw blm…",
  "USER": "pdarkness99"
 },
 {
  "CREATED_AT": "Tue Feb 09 23:20:55 +0000 2021",
  "ID_STR": "1359281152817725442",
  "FULL_TEXT": "@danawallet punten ada dm",
  "USER": "ADUHESKOPYOR"
 },
 {
  "CREATED_AT": "Tue Feb 09 23:10:42 +0000 2021",
  "ID_STR": "1359278580526510082",
  "FULL_TEXT": "@danawallet Udah sesuai udah dapet token tapi kosong",
  "USER": "kickyowon"
 },
 {
  "CREATED_AT": "Tue Feb 09 22:59:53 +0000 2021",
  "ID_STR": "1359275860168118273",
  "FULL_TEXT": "@andini_intan_ @danawallet Saran aja.\ndana sekarang sudah rentan.\nJangan simpan duit hingga berjuta-puluhan juta.",
  "USER": "SiegenSan"
 },
 {
  "CREATED_AT": "Tue Feb 09 22:20:05 +0000 2021",
  "ID_STR": "1359265843125706757",
  "FULL_TEXT": "RT @andini_intan_: @danawallet Tydaaacc.. akan aq up smp km balikin duitnyaa.. @ojkindonesia @TMCPoldaMetro @jokowi @kaesangp @dink2525 @pr…",
  "USER": "yudi732002"
 },
 {
  "CREATED_AT": "Tue Feb 09 22:11:48 +0000 2021",
  "ID_STR": "1359263759013797889",
  "FULL_TEXT": "RT @andini_intan_: Gilak\nTiap pagi kudu pusing urusan ma lu @danawallet \n2 juta duit g sedikit woy, itu seluruh duit yg gw pny. Laki gw blm…",
  "USER": "GomarusBudiatn3"
 },
 {
  "CREATED_AT": "Tue Feb 09 22:06:40 +0000 2021",
  "ID_STR": "1359262468120276998",
  "FULL_TEXT": "RT @andini_intan_: Gilak\nTiap pagi kudu pusing urusan ma lu @danawallet \n2 juta duit g sedikit woy, itu seluruh duit yg gw pny. Laki gw blm…",
  "USER": "Mazggg"
 },
 {
  "CREATED_AT": "Tue Feb 09 22:04:57 +0000 2021",
  "ID_STR": "1359262033913339915",
  "FULL_TEXT": "@danawallet cek dm kak",
  "USER": "pjaeby"
 },
 {
  "CREATED_AT": "Tue Feb 09 21:51:17 +0000 2021",
  "ID_STR": "1359258593036357632",
  "FULL_TEXT": "@danawallet masih belum ada respon",
  "USER": "dedehamdani888"
 },
 {
  "CREATED_AT": "Tue Feb 09 21:33:24 +0000 2021",
  "ID_STR": "1359254093802270722",
  "FULL_TEXT": "@ojkindonesia @danawallet @bank_indonesia Kalau jiwasraya BUMN yang ngawasin OJK kan? Kok bisa gagal bayar? Ngapain aja OJK ? Sekarang diem aja ratusan ribu nasabah nya mau di potong duit nya dan nga tahu kapan kembali?  @FJiwasraya @jokowi",
  "USER": "Marwinto4"
 },
 {
  "CREATED_AT": "Tue Feb 09 20:53:35 +0000 2021",
  "ID_STR": "1359244073626857473",
  "FULL_TEXT": "@andihiyat Aku pake Dana @danawallet pake PermataMe @PermataBank dua duanya gratis transfer ke bank manapun",
  "USER": "mojdtinkerbell"
 },
 {
  "CREATED_AT": "Tue Feb 09 20:08:07 +0000 2021",
  "ID_STR": "1359232632920236037",
  "FULL_TEXT": "@danawallet Ini udah selesai urusannya.?\nhttps://t.co/3rXtT3j43U",
  "USER": "Cebongmilitan1"
 },
 {
  "CREATED_AT": "Tue Feb 09 19:51:25 +0000 2021",
  "ID_STR": "1359228428893835264",
  "FULL_TEXT": "RT @danawallet: Biar makin #XiapCuan hari ini, intip dulu yuk caranya! Dapetin Token DANA Angpao dengan Kirim Uang ke nomor HP yang belum p…",
  "USER": "dedehamdani888"
 },
 {
  "CREATED_AT": "Tue Feb 09 19:40:07 +0000 2021",
  "ID_STR": "1359225583968768001",
  "FULL_TEXT": "@andini_intan_ @hodienasa @danawallet Hadeu Dana Kasusnya Uda Dimana Mana Ya 😌😖 Mau Payment Icloud aja jadi mgeri deh, 50k kan mayan skrg sa beli makan sehari",
  "USER": "Dooooooveeeeee"
 },
 {
  "CREATED_AT": "Tue Feb 09 19:37:53 +0000 2021",
  "ID_STR": "1359225023433568256",
  "FULL_TEXT": "@Dani82417148 @andini_intan_ @danawallet Sama saya juga udah 3 bulan",
  "USER": "hodienasa"
 },
 {
  "CREATED_AT": "Tue Feb 09 19:37:44 +0000 2021",
  "ID_STR": "1359224986628620288",
  "FULL_TEXT": "RT @andini_intan_: Gilak\nTiap pagi kudu pusing urusan ma lu @danawallet \n2 juta duit g sedikit woy, itu seluruh duit yg gw pny. Laki gw blm…",
  "USER": "whoooisdisss"
 },
 {
  "CREATED_AT": "Tue Feb 09 19:36:36 +0000 2021",
  "ID_STR": "1359224702221176832",
  "FULL_TEXT": "@andini_intan_ @suwarditotok76 @humaira979 @danawallet Saya sudah 3 bulan kak, saya dm terus g ada hasil",
  "USER": "hodienasa"
 },
 {
  "CREATED_AT": "Tue Feb 09 19:36:24 +0000 2021",
  "ID_STR": "1359224650992136195",
  "FULL_TEXT": "RT @andini_intan_: Gilak\nTiap pagi kudu pusing urusan ma lu @danawallet \n2 juta duit g sedikit woy, itu seluruh duit yg gw pny. Laki gw blm…",
  "USER": "MImproxyble"
 },
 {
  "CREATED_AT": "Tue Feb 09 19:36:14 +0000 2021",
  "ID_STR": "1359224607715201025",
  "FULL_TEXT": "@akulagikesal @andini_intan_ @danawallet Sama aku jugaa temen2 ku juga bnyk berjuta2 saldo y",
  "USER": "hodienasa"
 },
 {
  "CREATED_AT": "Tue Feb 09 19:35:54 +0000 2021",
  "ID_STR": "1359224526597357569",
  "FULL_TEXT": "@AtapMiring @andini_intan_ @danawallet Sayang bnget uang y :(",
  "USER": "hodienasa"
 },
 {
  "CREATED_AT": "Tue Feb 09 19:34:57 +0000 2021",
  "ID_STR": "1359224284393009153",
  "FULL_TEXT": "RT @andini_intan_: Gilak\nTiap pagi kudu pusing urusan ma lu @danawallet \n2 juta duit g sedikit woy, itu seluruh duit yg gw pny. Laki gw blm…",
  "USER": "hodienasa"
 },
 {
  "CREATED_AT": "Tue Feb 09 19:33:19 +0000 2021",
  "ID_STR": "1359223875448438784",
  "FULL_TEXT": "@danawallet Asyudahlah",
  "USER": "SieskaMazmur"
 },
 {
  "CREATED_AT": "Tue Feb 09 19:32:53 +0000 2021",
  "ID_STR": "1359223766295879682",
  "FULL_TEXT": "@sunlwon @danawallet Iya betul aplikasi tolol",
  "USER": "hodienasa"
 },
 {
  "CREATED_AT": "Tue Feb 09 19:23:10 +0000 2021",
  "ID_STR": "1359221318923636737",
  "FULL_TEXT": "@danawallet Ga pernah lagi dapet promo Dana semenjak ganti hp. Katanya tidak eligible - selalu. Entah dari mananya. Emg ganti device jadi ga dapet gitu? Masa harus pake hp yg udah metong #kzl",
  "USER": "SieskaMazmur"
 },
 {
  "CREATED_AT": "Tue Feb 09 18:43:45 +0000 2021",
  "ID_STR": "1359211402590781440",
  "FULL_TEXT": "@danawallet kapan dana gua bisa transaksi lagi woy?\nudah nunggu dari 25 desember 2019 sampe sekarang belum ada perubahan\n\nmasa harus sampe 2 bulan buat nyelesaiin masalah pelanggan, gausah banyak promosi deh, ngurusin keluhan pelanggan aja ribet begini",
  "USER": "marimoeh"
 },
 {
  "CREATED_AT": "Tue Feb 09 18:43:45 +0000 2021",
  "ID_STR": "1359211402590781440",
  "FULL_TEXT": "@danawallet kapan dana gua bisa transaksi lagi woy?\nudah nunggu dari 25 desember 2019 sampe sekarang belum ada perubahan\n\nmasa harus sampe 2 bulan buat nyelesaiin masalah pelanggan, gausah banyak promosi deh, ngurusin keluhan pelanggan aja ribet begini",
  "USER": "marimoeh"
 },
 {
  "CREATED_AT": "Tue Feb 09 18:34:53 +0000 2021",
  "ID_STR": "1359209168377245697",
  "FULL_TEXT": "@danawallet tolong cek dm ya, min. makasih.",
  "USER": "dearystars"
 },
 {
  "CREATED_AT": "Tue Feb 09 18:15:49 +0000 2021",
  "ID_STR": "1359204372429737984",
  "FULL_TEXT": "@andini_intan_ @ramsyahrif_ @danawallet Bantu up ya...",
  "USER": "what_2001"
 },
 {
  "CREATED_AT": "Tue Feb 09 17:52:40 +0000 2021",
  "ID_STR": "1359198545853599749",
  "FULL_TEXT": "@danawallet @danasupport u kudu help w banget ini 100 juga berharga anjrit :(",
  "USER": "dtymhrdn"
 },
 {
  "CREATED_AT": "Tue Feb 09 17:51:16 +0000 2021",
  "ID_STR": "1359198192005304320",
  "FULL_TEXT": "@danawallet @andini_intan_ Harusnya keluhan client didengarkan dan di follow up, jangan malah di tunda2. Apalagi ini urgent, emergency....utk biaya berobat, dll. Ingat kebutuhanya sangat mendesak.....bantu pencairannya agar cepat balik dananya.",
  "USER": "bhagaskoro"
 },
 {
  "CREATED_AT": "Tue Feb 09 17:51:12 +0000 2021",
  "ID_STR": "1359198175983140864",
  "FULL_TEXT": "@andini_intan_ @danawallet Hooh. Kl ke bank ada admin e..\nLoading e ya cepet..\n\nRung mapan mbak..\nSi kembar wis bobok?",
  "USER": "chikiajadong35"
 },
 {
  "CREATED_AT": "Tue Feb 09 17:47:10 +0000 2021",
  "ID_STR": "1359197161796161539",
  "FULL_TEXT": "@chikiajadong35 @danawallet Ovo g pnh nguciwain sih selama inii.. tp ttp kena admin ya nek trf2.. 😅😅 maklum mak2 golek e sing gretong an cyiin..",
  "USER": "andini_intan_"
 },
 {
  "CREATED_AT": "Tue Feb 09 17:41:35 +0000 2021",
  "ID_STR": "1359195756817575936",
  "FULL_TEXT": "@danawallet Bro cek dm, w salah tf bro anjrot",
  "USER": "dtymhrdn"
 },
 {
  "CREATED_AT": "Tue Feb 09 17:36:09 +0000 2021",
  "ID_STR": "1359194390468591622",
  "FULL_TEXT": "@danawallet mau ganti nomor hp ribet banget oi, otp nya ga masuk mulu ke email terdaftar",
  "USER": "ADUHESKOPYOR"
 },
 {
  "CREATED_AT": "Tue Feb 09 17:35:33 +0000 2021",
  "ID_STR": "1359194236344619009",
  "FULL_TEXT": "@andini_intan_ @danawallet Ovo piye..\nAku buka apk dana suwee bgt mbak..\nGatau knp..",
  "USER": "chikiajadong35"
 },
 {
  "CREATED_AT": "Tue Feb 09 17:34:42 +0000 2021",
  "ID_STR": "1359194022791704579",
  "FULL_TEXT": "@chikiajadong35 @danawallet Iyoo aq jd kapok... Mo nyoba platform lain buat trf2 beda rek yg ga pke admin 😂😂",
  "USER": "andini_intan_"
 },
 {
  "CREATED_AT": "Tue Feb 09 17:33:37 +0000 2021",
  "ID_STR": "1359193752665948162",
  "FULL_TEXT": "@andini_intan_ @danawallet Pdhl akun centang biru lho mbak..\nDuhh ngeriikkk",
  "USER": "chikiajadong35"
 },
 {
  "CREATED_AT": "Tue Feb 09 17:32:40 +0000 2021",
  "ID_STR": "1359193510939791362",
  "FULL_TEXT": "@ramsyahrif_ @danawallet Emg hrs nekat di push trs oom.. biar budeg budeg dah tuh cs nya.. 😅",
  "USER": "andini_intan_"
 },
 {
  "CREATED_AT": "Tue Feb 09 17:32:36 +0000 2021",
  "ID_STR": "1359193495987134465",
  "FULL_TEXT": "RT @andini_intan_: Gilak\nTiap pagi kudu pusing urusan ma lu @danawallet \n2 juta duit g sedikit woy, itu seluruh duit yg gw pny. Laki gw blm…",
  "USER": "bejoluckuntung"
 },
 {
  "CREATED_AT": "Tue Feb 09 17:31:44 +0000 2021",
  "ID_STR": "1359193277690388481",
  "FULL_TEXT": "@chikiajadong35 @danawallet Iya oogh.. kudu dikeroyok br lsg di kerjain.. kesian yg saya baca ada yg smp sebulanan g selese2 😢",
  "USER": "andini_intan_"
 },
 {
  "CREATED_AT": "Tue Feb 09 17:31:05 +0000 2021",
  "ID_STR": "1359193113139376129",
  "FULL_TEXT": "RT @KejuCoklat15: @danawallet @andini_intan_ Woiiii pke hti dong tu orang butuuhh..",
  "USER": "Agus_tok8"
 },
 {
  "CREATED_AT": "Tue Feb 09 17:30:18 +0000 2021",
  "ID_STR": "1359192916200099847",
  "FULL_TEXT": "RT @BabeSingit: @andini_intan_ @danawallet DM ke @Mend0an_ \n2 jutanya sementara digantiin, \nnanti klw sudah dibayar oleh danawallet yang 1…",
  "USER": "Agus_tok8"
 },
 {
  "CREATED_AT": "Tue Feb 09 17:30:13 +0000 2021",
  "ID_STR": "1359192894528131077",
  "FULL_TEXT": "@BabeSingit @andini_intan_ @danawallet @Mend0an_ Terima kasih Tuhan sudah kirimkan babe di dunia. Sehat selalu be.",
  "USER": "mochikepow"
 },
 {
  "CREATED_AT": "Tue Feb 09 17:28:40 +0000 2021",
  "ID_STR": "1359192507138011137",
  "FULL_TEXT": "@suwarditotok76 @humaira979 @danawallet Saya jg di janjiin 5x24 jam kak.. tp saya ngedrel.. klo lebih2 duit sii gpp.. ini pas paceklik gini.. 😅 kl g dbantuin up temen2 twitter jg mgk g selese2 ini mah",
  "USER": "andini_intan_"
 },
 {
  "CREATED_AT": "Tue Feb 09 17:28:08 +0000 2021",
  "ID_STR": "1359192373100568582",
  "FULL_TEXT": "RT @andini_intan_: Gilak\nTiap pagi kudu pusing urusan ma lu @danawallet \n2 juta duit g sedikit woy, itu seluruh duit yg gw pny. Laki gw blm…",
  "USER": "NogoSosroAsli"
 },
 {
  "CREATED_AT": "Tue Feb 09 17:25:57 +0000 2021",
  "ID_STR": "1359191820467539968",
  "FULL_TEXT": "@andini_intan_ @danawallet dulu aku juga 1 minggu nyangkut, udah topup dana tp uang gak masuk2 sampe akhirnya diikhlasin seminggu kemudian baru masuk. hadeuuhh @danawallet",
  "USER": "ramsyahrif_"
 },
 {
  "CREATED_AT": "Tue Feb 09 17:25:35 +0000 2021",
  "ID_STR": "1359191729023242242",
  "FULL_TEXT": "@danawallet Orng sabar to ada batasnya",
  "USER": "Sari34422129"
 },
 {
  "CREATED_AT": "Tue Feb 09 17:22:32 +0000 2021",
  "ID_STR": "1359190961125945345",
  "FULL_TEXT": "@andini_intan_ @danawallet Amin..\nTernyata bnran harus di up.di socmed ya mbk.. br ada progress",
  "USER": "chikiajadong35"
 },
 {
  "CREATED_AT": "Tue Feb 09 17:19:49 +0000 2021",
  "ID_STR": "1359190277303373824",
  "FULL_TEXT": "@andini_intan_ @BabeSingit @danawallet @Mend0an_ Selamat yah mb.. semiga sehat2 sll. Dan uwak sgra di ops dan lekas pulih.. amin..",
  "USER": "chikiajadong35"
 },
 {
  "CREATED_AT": "Tue Feb 09 17:19:46 +0000 2021",
  "ID_STR": "1359190266041667584",
  "FULL_TEXT": "RT @andini_intan_: Gilak\nTiap pagi kudu pusing urusan ma lu @danawallet \n2 juta duit g sedikit woy, itu seluruh duit yg gw pny. Laki gw blm…",
  "USER": "Nathan29127081"
 },
 {
  "CREATED_AT": "Tue Feb 09 17:13:49 +0000 2021",
  "ID_STR": "1359188768222179328",
  "FULL_TEXT": "@BabeSingit @andini_intan_ @danawallet @Mend0an_ Trmksh ya babe..\nSelamat mb Andini..\nSmg uwaknya lekasdiops dan pulih",
  "USER": "chikiajadong35"
 },
 {
  "CREATED_AT": "Tue Feb 09 17:10:03 +0000 2021",
  "ID_STR": "1359187820707868672",
  "FULL_TEXT": "@gaIak @danawallet hahaha gbs ditarik yh",
  "USER": "dougnats"
 },
 {
  "CREATED_AT": "Tue Feb 09 17:05:09 +0000 2021",
  "ID_STR": "1359186588631134209",
  "FULL_TEXT": "RT @andini_intan_: Gilak\nTiap pagi kudu pusing urusan ma lu @danawallet \n2 juta duit g sedikit woy, itu seluruh duit yg gw pny. Laki gw blm…",
  "USER": "_kusno"
 },
 {
  "CREATED_AT": "Tue Feb 09 17:04:09 +0000 2021",
  "ID_STR": "1359186335123218434",
  "FULL_TEXT": "@danawallet cekdm dong",
  "USER": "gaIak"
 },
 {
  "CREATED_AT": "Tue Feb 09 16:58:25 +0000 2021",
  "ID_STR": "1359184893687734272",
  "FULL_TEXT": "@andini_intan_ @humaira979 @danawallet Pengalaman aku...pernah juga transfer pending...6/7 hari baru balik ke akun dana lagi😢😢😢.....",
  "USER": "suwarditotok76"
 },
 {
  "CREATED_AT": "Tue Feb 09 16:48:05 +0000 2021",
  "ID_STR": "1359182290144776192",
  "FULL_TEXT": "RT @andini_intan_: Gilak\nTiap pagi kudu pusing urusan ma lu @danawallet \n2 juta duit g sedikit woy, itu seluruh duit yg gw pny. Laki gw blm…",
  "USER": "armandms323"
 },
 {
  "CREATED_AT": "Tue Feb 09 16:46:20 +0000 2021",
  "ID_STR": "1359181851437371392",
  "FULL_TEXT": "@danawallet cape nunggu mulu berasa kek dosen akh tau ga",
  "USER": "jihoonswifeu_"
 },
 {
  "CREATED_AT": "Tue Feb 09 16:41:43 +0000 2021",
  "ID_STR": "1359180688382062594",
  "FULL_TEXT": "@danawallet GIMANA NIH @dtyya UANG LO YG DIBEKUIN TANPA ALASAN SAMA DANA. DAN UDAH BIKIN KELUHAN SAMPE DPT 10 TIKET TP GA ADA PENYELESAIANNYA.",
  "USER": "funkyho3"
 },
 {
  "CREATED_AT": "Tue Feb 09 16:36:55 +0000 2021",
  "ID_STR": "1359179482880352263",
  "FULL_TEXT": "RT @andini_intan_: Gilak\nTiap pagi kudu pusing urusan ma lu @danawallet \n2 juta duit g sedikit woy, itu seluruh duit yg gw pny. Laki gw blm…",
  "USER": "nius77"
 },
 {
  "CREATED_AT": "Tue Feb 09 16:36:30 +0000 2021",
  "ID_STR": "1359179378190548993",
  "FULL_TEXT": "RT @andini_intan_: @AmakusaAri @danawallet Haii kamu.. bantu up dong.. terimakasih 😭😭",
  "USER": "nius77"
 },
 {
  "CREATED_AT": "Tue Feb 09 16:31:23 +0000 2021",
  "ID_STR": "1359178087728967680",
  "FULL_TEXT": "@danawallet Ih lama",
  "USER": "jordi_elba"
 },
 {
  "CREATED_AT": "Tue Feb 09 16:28:01 +0000 2021",
  "ID_STR": "1359177242153164806",
  "FULL_TEXT": "RT @andini_intan_: @danawallet Tydaaacc.. akan aq up smp km balikin duitnyaa.. @ojkindonesia @TMCPoldaMetro @jokowi @kaesangp @dink2525 @pr…",
  "USER": "justbob616"
 },
 {
  "CREATED_AT": "Tue Feb 09 16:25:09 +0000 2021",
  "ID_STR": "1359176520980254720",
  "FULL_TEXT": "@danawallet @andini_intan_ Balikin duit orang",
  "USER": "kikitaroreh"
 },
 {
  "CREATED_AT": "Tue Feb 09 16:24:48 +0000 2021",
  "ID_STR": "1359176433399046145",
  "FULL_TEXT": "@danawallet @andini_intan_ @liem_kaliem Woy,balikin duit orang!!!!",
  "USER": "kikitaroreh"
 },
 {
  "CREATED_AT": "Tue Feb 09 16:18:43 +0000 2021",
  "ID_STR": "1359174902519980036",
  "FULL_TEXT": "@andini_intan_ @danawallet Bantu up.. Ayo balikin......!!!!!!",
  "USER": "helawelaw"
 },
 {
  "CREATED_AT": "Tue Feb 09 16:18:11 +0000 2021",
  "ID_STR": "1359174768264507394",
  "FULL_TEXT": "RT @andini_intan_: Gilak\nTiap pagi kudu pusing urusan ma lu @danawallet \n2 juta duit g sedikit woy, itu seluruh duit yg gw pny. Laki gw blm…",
  "USER": "galiihwiicak"
 },
 {
  "CREATED_AT": "Tue Feb 09 16:17:52 +0000 2021",
  "ID_STR": "1359174688115544069",
  "FULL_TEXT": "@danawallet @andini_intan_ @liem_kaliem Sumpa lu ya.",
  "USER": "logaritmathh"
 },
 {
  "CREATED_AT": "Tue Feb 09 16:10:41 +0000 2021",
  "ID_STR": "1359172881041694720",
  "FULL_TEXT": "@danawallet min tolong cek dm ya",
  "USER": "madmoiszelle"
 },
 {
  "CREATED_AT": "Tue Feb 09 16:06:54 +0000 2021",
  "ID_STR": "1359171928347475970",
  "FULL_TEXT": "RT @andini_intan_: Gilak\nTiap pagi kudu pusing urusan ma lu @danawallet \n2 juta duit g sedikit woy, itu seluruh duit yg gw pny. Laki gw blm…",
  "USER": "pojokwarteg"
 },
 {
  "CREATED_AT": "Tue Feb 09 16:03:37 +0000 2021",
  "ID_STR": "1359171103680208897",
  "FULL_TEXT": "@andini_intan_ @Vivittts @danawallet @ojkindonesia  @CCICPolri  @bank_indonesia  tolonglah lembaga2 yg banyak dikeluhkan oleh nasabah segera tindak tegas, ini bisa mempengaruhi kepercayaan masyarakat terhadap lemabaga keuangan...\nUntuk @danawallet  bertindak profesional dong, jgn sampe merugikan pengguna jasamu",
  "USER": "liem_kaliem"
 },
 {
  "CREATED_AT": "Tue Feb 09 15:59:08 +0000 2021",
  "ID_STR": "1359169972556206089",
  "FULL_TEXT": "@danawallet Blm dbalas dm nya",
  "USER": "achmadz20028142"
 },
 {
  "CREATED_AT": "Tue Feb 09 15:54:15 +0000 2021",
  "ID_STR": "1359168746196262917",
  "FULL_TEXT": "@danawallet Okee ditunggu min",
  "USER": "jongingfs"
 },
 {
  "CREATED_AT": "Tue Feb 09 15:45:59 +0000 2021",
  "ID_STR": "1359166665871806472",
  "FULL_TEXT": "@andini_intan_ @Vivittts @danawallet Ngaco nih lo kyk gini...",
  "USER": "Setyo_165"
 },
 {
  "CREATED_AT": "Tue Feb 09 15:39:42 +0000 2021",
  "ID_STR": "1359165084174540807",
  "FULL_TEXT": "@danawallet min cek dm dong.. tolong bgt",
  "USER": "jordi_elba"
 },
 {
  "CREATED_AT": "Tue Feb 09 15:35:17 +0000 2021",
  "ID_STR": "1359163971194994689",
  "FULL_TEXT": "@andini_intan_ @danawallet Uninstall aja deh, bnyk bnget keluhan utk dana ini...",
  "USER": "AtapMiring"
 },
 {
  "CREATED_AT": "Tue Feb 09 15:33:15 +0000 2021",
  "ID_STR": "1359163458223296514",
  "FULL_TEXT": "@danawallet Benerin masalah gak kelar gak dapet angpao mana eror keluar terus jadi gak dapet daget tolong benerin sistemnya kedepannya wahai dana",
  "USER": "kickyowon"
 },
 {
  "CREATED_AT": "Tue Feb 09 15:23:56 +0000 2021",
  "ID_STR": "1359161115083747332",
  "FULL_TEXT": "@BabeSingit @rachman_anna @andini_intan_ @danawallet @Mend0an_ ah ini mah babe gadun dr bahasa nya dah keliatan woyy 🤣",
  "USER": "retno_setyowat"
 },
 {
  "CREATED_AT": "Tue Feb 09 15:23:52 +0000 2021",
  "ID_STR": "1359161096796573700",
  "FULL_TEXT": "@danawallet Udah. Cek dm",
  "USER": "polcaduts_"
 },
 {
  "CREATED_AT": "Tue Feb 09 15:22:54 +0000 2021",
  "ID_STR": "1359160853199740932",
  "FULL_TEXT": "@BabeSingit @Mend0an_ @andini_intan_ @danawallet beh kenapa ganti jadi babe singitt sih ? pantesan gak keliatan avanya yg mirip warna angpao 🤣🤣🙏🏻",
  "USER": "retno_setyowat"
 },
 {
  "CREATED_AT": "Tue Feb 09 15:11:57 +0000 2021",
  "ID_STR": "1359158099291037700",
  "FULL_TEXT": "@helloca___ @changbingn @glownayel @danawallet Jadi gak?",
  "USER": "kickyowon"
 },
 {
  "CREATED_AT": "Tue Feb 09 15:05:55 +0000 2021",
  "ID_STR": "1359156581062041607",
  "FULL_TEXT": "@andini_intan_ @danawallet Iyaa kaa pasti, kalo aku ada di posisi kk jg bakal kaya kk 😭",
  "USER": "sayaalucky"
 },
 {
  "CREATED_AT": "Tue Feb 09 15:05:52 +0000 2021",
  "ID_STR": "1359156568349155340",
  "FULL_TEXT": "@AlichgunturMs @danawallet Wah klo di refund brti pake kirim surat surat2an segala y mas.. ribet jg ya",
  "USER": "andini_intan_"
 },
 {
  "CREATED_AT": "Tue Feb 09 15:04:40 +0000 2021",
  "ID_STR": "1359156267172954115",
  "FULL_TEXT": "@sayaalucky @danawallet Iyaa 😭😭 nangis seharian itu",
  "USER": "andini_intan_"
 },
 {
  "CREATED_AT": "Tue Feb 09 15:03:43 +0000 2021",
  "ID_STR": "1359156028127006722",
  "FULL_TEXT": "@andini_intan_ @danawallet Next.... stelah aktif komunikasi hampir tiap hari hub tim dana, walopun jawabannya sama \"rasa bosan\" mndengary. MakaSkitar dua mingguan uang sy di kembalikan oleh tim Dana ke rek saya dg mnandatangani srt prnyataan di atas matre yg dikirimkan",
  "USER": "AlichgunturMs"
 },
 {
  "CREATED_AT": "Tue Feb 09 14:56:19 +0000 2021",
  "ID_STR": "1359154163305902089",
  "FULL_TEXT": "RT @andini_intan_: Gilak\nTiap pagi kudu pusing urusan ma lu @danawallet \n2 juta duit g sedikit woy, itu seluruh duit yg gw pny. Laki gw blm…",
  "USER": "imjujulie"
 },
 {
  "CREATED_AT": "Tue Feb 09 14:55:59 +0000 2021",
  "ID_STR": "1359154080329924611",
  "FULL_TEXT": "Min cdm bentar urgent @danawallet",
  "USER": "jongingfs"
 },
 {
  "CREATED_AT": "Tue Feb 09 14:52:55 +0000 2021",
  "ID_STR": "1359153308636770310",
  "FULL_TEXT": "@andini_intan_ @danawallet Hati hati dengan uang elektronik mbak\nKrn banyk sekali data digital saat ini terganggu",
  "USER": "pitradhana"
 },
 {
  "CREATED_AT": "Tue Feb 09 14:51:09 +0000 2021",
  "ID_STR": "1359152863885295616",
  "FULL_TEXT": "@andini_intan_ @danawallet Pngalamanku:\nPrnh transfer ke rek dana olshop. Eh trnyata rek olshop lg di blokir oleh Tim Dana krn brmasalah, masuklh ke rek virtual acount Dana, akhiry q dapat no telp/wa Dana centre. Tk wa, yg jwb pesan automatis. Tk telpon bbrp x jwbny sm. Sruh nunggu tim resolusi next",
  "USER": "AlichgunturMs"
 },
 {
  "CREATED_AT": "Tue Feb 09 14:48:08 +0000 2021",
  "ID_STR": "1359152107060871172",
  "FULL_TEXT": "@andini_intan_ @danawallet Aku terharu bgt liat perjuangan kk kmren ampe call, wa dm2 an juga sma pihak dana",
  "USER": "sayaalucky"
 },
 {
  "CREATED_AT": "Tue Feb 09 14:44:30 +0000 2021",
  "ID_STR": "1359151190806827012",
  "FULL_TEXT": "Big thanks and big hug buat temen2 mutual rasa sodara yg udh bantu up.. semoga dgn twit ini korban2 dana yg smp sekarang blm kelar mslhnya bs angkat suara. Insha Allah saya akan bntu up dan RT biar rame dan case mu cpt2 diberesin sm @danawallet 🙏🏻🙏🏻thx good people",
  "USER": "andini_intan_"
 },
 {
  "CREATED_AT": "Tue Feb 09 14:42:29 +0000 2021",
  "ID_STR": "1359150684986343425",
  "FULL_TEXT": "RT @andini_intan_: Gilak\nTiap pagi kudu pusing urusan ma lu @danawallet \n2 juta duit g sedikit woy, itu seluruh duit yg gw pny. Laki gw blm…",
  "USER": "SetiawanHendras"
 },
 {
  "CREATED_AT": "Tue Feb 09 14:37:29 +0000 2021",
  "ID_STR": "1359149426225332225",
  "FULL_TEXT": "@danawallet Min cek dm",
  "USER": "peningtau"
 },
 {
  "CREATED_AT": "Tue Feb 09 14:35:56 +0000 2021",
  "ID_STR": "1359149034909368331",
  "FULL_TEXT": "@Mend0an_ @andini_intan_ @danawallet Aamiin ya robb",
  "USER": "imasida703"
 },
 {
  "CREATED_AT": "Tue Feb 09 14:35:27 +0000 2021",
  "ID_STR": "1359148914671296515",
  "FULL_TEXT": "@andini_intan_ @danawallet Semoga secept y terselesaikan Aamiin",
  "USER": "imasida703"
 },
 {
  "CREATED_AT": "Tue Feb 09 14:14:56 +0000 2021",
  "ID_STR": "1359143748890890240",
  "FULL_TEXT": "@repolocos1 @danawallet ayuk",
  "USER": "helloca___"
 },
 {
  "CREATED_AT": "Tue Feb 09 14:14:41 +0000 2021",
  "ID_STR": "1359143687784026113",
  "FULL_TEXT": "@kickyowon @changbingn @glownayel @danawallet sama aku aj",
  "USER": "helloca___"
 },
 {
  "CREATED_AT": "Tue Feb 09 14:07:19 +0000 2021",
  "ID_STR": "1359141834841182208",
  "FULL_TEXT": "@danawallet terus sampe kapan , cape banget nunggu tau ga!? gaada kejelasan sama sekali",
  "USER": "jihoonswifeu_"
 },
 {
  "CREATED_AT": "Tue Feb 09 14:01:48 +0000 2021",
  "ID_STR": "1359140445024972800",
  "FULL_TEXT": "@danawallet aku udah DM kamu kak. cek ya ka",
  "USER": "bibehbibul"
 },
 {
  "CREATED_AT": "Tue Feb 09 14:01:47 +0000 2021",
  "ID_STR": "1359140443204685828",
  "FULL_TEXT": "RT @andini_intan_: Gilak\nTiap pagi kudu pusing urusan ma lu @danawallet \n2 juta duit g sedikit woy, itu seluruh duit yg gw pny. Laki gw blm…",
  "USER": "ForianaToto"
 },
 {
  "CREATED_AT": "Tue Feb 09 13:56:30 +0000 2021",
  "ID_STR": "1359139111819382787",
  "FULL_TEXT": "RT @andini_intan_: Gilak\nTiap pagi kudu pusing urusan ma lu @danawallet \n2 juta duit g sedikit woy, itu seluruh duit yg gw pny. Laki gw blm…",
  "USER": "m444da"
 },
 {
  "CREATED_AT": "Tue Feb 09 13:56:02 +0000 2021",
  "ID_STR": "1359138992659210246",
  "FULL_TEXT": "RT @andini_intan_: Gilak\nTiap pagi kudu pusing urusan ma lu @danawallet \n2 juta duit g sedikit woy, itu seluruh duit yg gw pny. Laki gw blm…",
  "USER": "MMufaid"
 },
 {
  "CREATED_AT": "Tue Feb 09 13:48:32 +0000 2021",
  "ID_STR": "1359137107785121794",
  "FULL_TEXT": "Bahhh ada promo di dana ya? @danawallet",
  "USER": "yedasarlucombro"
 },
 {
  "CREATED_AT": "Tue Feb 09 13:47:11 +0000 2021",
  "ID_STR": "1359136766196740104",
  "FULL_TEXT": "@andini_intan_ @danawallet wah padahal baru instal @danawallet , rencana mau buat transfer2 an... ngga jadi deh, langsung uninstall...",
  "USER": "Dodoman72767330"
 },
 {
  "CREATED_AT": "Tue Feb 09 13:45:52 +0000 2021",
  "ID_STR": "1359136434226044930",
  "FULL_TEXT": "@danawallet KEMBALIIN UANG TEMEN AKU 😡",
  "USER": "funkyho3"
 },
 {
  "CREATED_AT": "Tue Feb 09 13:15:35 +0000 2021",
  "ID_STR": "1359128813293035528",
  "FULL_TEXT": "RT @andini_intan_: Gilak\nTiap pagi kudu pusing urusan ma lu @danawallet \n2 juta duit g sedikit woy, itu seluruh duit yg gw pny. Laki gw blm…",
  "USER": "Putra_Timur88"
 },
 {
  "CREATED_AT": "Tue Feb 09 12:57:58 +0000 2021",
  "ID_STR": "1359124381876641799",
  "FULL_TEXT": "RT @BabeSingit: @andini_intan_ @danawallet DM ke @Mend0an_ \n2 jutanya sementara digantiin, \nnanti klw sudah dibayar oleh danawallet yang 1…",
  "USER": "Putra_RadjaS"
 },
 {
  "CREATED_AT": "Tue Feb 09 12:57:19 +0000 2021",
  "ID_STR": "1359124216327507971",
  "FULL_TEXT": "Dear @LazadaIDCare @LazadaID saya punya limit 1.5jt pengen ambil lemari es harganya 1.6jt. Pertanyaannya bisa enggak satu transaksi 2 metode pembayaran. Misal @danawallet  sama paylater?",
  "USER": "dedijendol"
 },
 {
  "CREATED_AT": "Tue Feb 09 12:49:07 +0000 2021",
  "ID_STR": "1359122153208094723",
  "FULL_TEXT": "@andini_intan_ @danawallet @roda4lucky78 Iya kak, sebenernya aku beli pakrt datanya gak seberapa, tapi bikin kapok aja kalo gini tuh. Semoga punya kakak juga cepetan diganti 😊",
  "USER": "sri46958012"
 },
 {
  "CREATED_AT": "Tue Feb 09 12:47:40 +0000 2021",
  "ID_STR": "1359121790660800513",
  "FULL_TEXT": "@danawallet ini kenapa dana gabisa transfer? Sistem sibuk terus?",
  "USER": "Mbooodan"
 },
 {
  "CREATED_AT": "Tue Feb 09 12:38:19 +0000 2021",
  "ID_STR": "1359119437626896387",
  "FULL_TEXT": "@danawallet udah min, ayo bales lagi",
  "USER": "aerchivex"
 },
 {
  "CREATED_AT": "Tue Feb 09 12:32:05 +0000 2021",
  "ID_STR": "1359117867736727553",
  "FULL_TEXT": "RT @andini_intan_: Gilak\nTiap pagi kudu pusing urusan ma lu @danawallet \n2 juta duit g sedikit woy, itu seluruh duit yg gw pny. Laki gw blm…",
  "USER": "bendolganteng"
 },
 {
  "CREATED_AT": "Tue Feb 09 12:31:04 +0000 2021",
  "ID_STR": "1359117613779984391",
  "FULL_TEXT": "@danawallet mana min ga dibales2?",
  "USER": "scorpiosaf"
 },
 {
  "CREATED_AT": "Tue Feb 09 12:29:26 +0000 2021",
  "ID_STR": "1359117200624218116",
  "FULL_TEXT": "@danawallet cape hampir 2 bulan dana ku di tahan tanpa alasan dan gaada respon sama sekali. sebenernya kalian gunain uangku buat apa?",
  "USER": "jihoonswifeu_"
 },
 {
  "CREATED_AT": "Tue Feb 09 12:25:31 +0000 2021",
  "ID_STR": "1359116214887354372",
  "FULL_TEXT": "@danawallet iya tolong cek dm min🥺🙏",
  "USER": "scorpiosaf"
 },
 {
  "CREATED_AT": "Tue Feb 09 12:20:26 +0000 2021",
  "ID_STR": "1359114934345367561",
  "FULL_TEXT": "RT @hodienasa: Dah muak banget uang sendiri di tahan selama 3 bulan!!!\nAplikasi terburuk selama sejarah hidup.\nYang di bekukan g gua doang…",
  "USER": "lu5iwd"
 },
 {
  "CREATED_AT": "Tue Feb 09 12:20:18 +0000 2021",
  "ID_STR": "1359114903110381571",
  "FULL_TEXT": "@danawallet min cek dm minn:((",
  "USER": "scorpiosaf"
 },
 {
  "CREATED_AT": "Tue Feb 09 12:13:48 +0000 2021",
  "ID_STR": "1359113265767321600",
  "FULL_TEXT": "@danawallet Siap",
  "USER": "kholileo1"
 },
 {
  "CREATED_AT": "Tue Feb 09 12:13:25 +0000 2021",
  "ID_STR": "1359113171672289281",
  "FULL_TEXT": "Akhir2 ini @danawallet problematic banget asu https://t.co/q6gO89uyR9",
  "USER": "polcaduts_"
 },
 {
  "CREATED_AT": "Tue Feb 09 12:12:42 +0000 2021",
  "ID_STR": "1359112988372791301",
  "FULL_TEXT": "@danawallet min cek dm lagi dong ☹️",
  "USER": "scorpiosaf"
 },
 {
  "CREATED_AT": "Tue Feb 09 12:07:45 +0000 2021",
  "ID_STR": "1359111743402700802",
  "FULL_TEXT": "@danawallet halo, admin dana. Saya sudah mencoba beberapa kali verifikasi email, namun tidak pernah ada email masuk. Sudah mencoba mengganti email dan tetap pada masalah yang sama. Terimakasih mohon bantuannya.",
  "USER": "kholileo1"
 },
 {
  "CREATED_AT": "Tue Feb 09 12:05:28 +0000 2021",
  "ID_STR": "1359111168342728714",
  "FULL_TEXT": "@BabeSingit @andini_intan_ @danawallet @Mend0an_ Alhamdullilah",
  "USER": "Adinda_Nabila88"
 },
 {
  "CREATED_AT": "Tue Feb 09 12:04:19 +0000 2021",
  "ID_STR": "1359110881729159173",
  "FULL_TEXT": "RT @andini_intan_: Gilak\nTiap pagi kudu pusing urusan ma lu @danawallet \n2 juta duit g sedikit woy, itu seluruh duit yg gw pny. Laki gw blm…",
  "USER": "pacareminten"
 },
 {
  "CREATED_AT": "Tue Feb 09 12:02:47 +0000 2021",
  "ID_STR": "1359110492367720448",
  "FULL_TEXT": "RT @andini_intan_: @danawallet Tydaaacc.. akan aq up smp km balikin duitnyaa.. @ojkindonesia @TMCPoldaMetro @jokowi @kaesangp @dink2525 @pr…",
  "USER": "celiaa09"
 },
 {
  "CREATED_AT": "Tue Feb 09 12:01:36 +0000 2021",
  "ID_STR": "1359110195956256771",
  "FULL_TEXT": "@BabeSingit @andini_intan_ @danawallet @Mend0an_ Sehat selalu orang baik",
  "USER": "Rimal_Rizky"
 },
 {
  "CREATED_AT": "Tue Feb 09 12:01:21 +0000 2021",
  "ID_STR": "1359110133419134979",
  "FULL_TEXT": "RT @BabeSingit: @andini_intan_ @danawallet DM ke @Mend0an_ \n2 jutanya sementara digantiin, \nnanti klw sudah dibayar oleh danawallet yang 1…",
  "USER": "Rimal_Rizky"
 }
]