[
 {
  "CREATED_AT": "Tue Feb 23 11:15:19 +0000 2021",
  "ID_STR": "1364171977242542081",
  "FULL_TEXT": "RT @danawallet: Berhadiah Saldo DANA!\nMana Suit Yang Benar?\n23 - 28 Feb\n\nCaption\nSiapa yang jago main suit nih? Yuk ikutan sekarang, jawab…",
  "USER": "AssepYunant"
 },
 {
  "CREATED_AT": "Tue Feb 23 11:14:06 +0000 2021",
  "ID_STR": "1364171674317324289",
  "FULL_TEXT": "@danawallet @Dana Jawaban : A\n\n@PutriYunant @Putriesha3 @Putriprestiana2 \n\n#SoreHore",
  "USER": "AssepYunant"
 },
 {
  "CREATED_AT": "Tue Feb 23 11:06:16 +0000 2021",
  "ID_STR": "1364169699798384640",
  "FULL_TEXT": "RT @danawallet: Berhadiah Saldo DANA!\nMana Suit Yang Benar?\n23 - 28 Feb\n\nCaption\nSiapa yang jago main suit nih? Yuk ikutan sekarang, jawab…",
  "USER": "rh1ka"
 },
 {
  "CREATED_AT": "Tue Feb 23 11:06:11 +0000 2021",
  "ID_STR": "1364169678889889792",
  "FULL_TEXT": "@danawallet @Dana Suit A \nikutan yuk @el_moms @CintaYangAbad12 @yesiaja96 #SoreHore",
  "USER": "rh1ka"
 },
 {
  "CREATED_AT": "Tue Feb 23 10:57:47 +0000 2021",
  "ID_STR": "1364167567749697539",
  "FULL_TEXT": "@SiMailbinmail @danawallet kapan bisanya ka? bulan ini baru ngecheck lg ternyata masih gak bisa trs tulisannya udh “out of service.” bulan lalu udh gak bisa top up via BRInya",
  "USER": "gracia232323"
 },
 {
  "CREATED_AT": "Tue Feb 23 10:38:25 +0000 2021",
  "ID_STR": "1364162692844384257",
  "FULL_TEXT": "RT @danawallet: 3. Tulis jawaban kamu di komen.\n4. Mention 3 orang temen kamu buat ikutan dan #SoreHore ya.\n5. Periode 23 - 28 Feb 2021.\n6.…",
  "USER": "dui_er92"
 },
 {
  "CREATED_AT": "Tue Feb 23 10:38:23 +0000 2021",
  "ID_STR": "1364162683558187010",
  "FULL_TEXT": "RT @danawallet: Berhadiah Saldo DANA!\nMana Suit Yang Benar?\n23 - 28 Feb\n\nCaption\nSiapa yang jago main suit nih? Yuk ikutan sekarang, jawab…",
  "USER": "dui_er92"
 },
 {
  "CREATED_AT": "Tue Feb 23 10:37:19 +0000 2021",
  "ID_STR": "1364162414229417986",
  "FULL_TEXT": "Mimin, cek dm yuk @danawallet 🤲🏻",
  "USER": "febrwuari"
 },
 {
  "CREATED_AT": "Tue Feb 23 10:30:15 +0000 2021",
  "ID_STR": "1364160636595265537",
  "FULL_TEXT": "@danawallet halo kak notif dana gak masuk knp ya. pdhl dulu ada",
  "USER": "starkbackup"
 },
 {
  "CREATED_AT": "Tue Feb 23 09:59:10 +0000 2021",
  "ID_STR": "1364152813442400256",
  "FULL_TEXT": "@danawallet yuk cdm yuk min, udah dikirim nii",
  "USER": "byuIhararg"
 },
 {
  "CREATED_AT": "Tue Feb 23 09:57:48 +0000 2021",
  "ID_STR": "1364152469396148230",
  "FULL_TEXT": "@danawallet sampe kapan gusti robbi ya allahuakbar bener2 lu ya",
  "USER": "jihoonswifeu_"
 },
 {
  "CREATED_AT": "Tue Feb 23 09:49:01 +0000 2021",
  "ID_STR": "1364150260856025091",
  "FULL_TEXT": "@danawallet Baik tlg di bantu prioritaskan ya. dana saya nyangkut sejak jumat. Lg butuh soalnya. Tks",
  "USER": "franksahala"
 },
 {
  "CREATED_AT": "Tue Feb 23 09:37:29 +0000 2021",
  "ID_STR": "1364147358833909761",
  "FULL_TEXT": "@danawallet @Dana Jawabannya A. \n@liriaariani @lannyveelya @rrbeecca \n#SoreHore",
  "USER": "arthurSinyo"
 },
 {
  "CREATED_AT": "Tue Feb 23 09:31:19 +0000 2021",
  "ID_STR": "1364145804919803910",
  "FULL_TEXT": "@danawallet top up melaui atm BRI masih belum bisa ya???",
  "USER": "ckrwdn"
 },
 {
  "CREATED_AT": "Tue Feb 23 09:26:13 +0000 2021",
  "ID_STR": "1364144524839165956",
  "FULL_TEXT": "@danawallet @Dana k n jg Kim",
  "USER": "alimurtopo2344"
 },
 {
  "CREATED_AT": "Tue Feb 23 09:26:03 +0000 2021",
  "ID_STR": "1364144481709158401",
  "FULL_TEXT": "RT @danawallet: Berhadiah Saldo DANA!\nMana Suit Yang Benar?\n23 - 28 Feb\n\nCaption\nSiapa yang jago main suit nih? Yuk ikutan sekarang, jawab…",
  "USER": "KurniawanRicho"
 },
 {
  "CREATED_AT": "Tue Feb 23 09:13:22 +0000 2021",
  "ID_STR": "1364141289113935873",
  "FULL_TEXT": "RT @danawallet: Berhadiah Saldo DANA!\nMana Suit Yang Benar?\n23 - 28 Feb\n\nCaption\nSiapa yang jago main suit nih? Yuk ikutan sekarang, jawab…",
  "USER": "king_phinokowie"
 },
 {
  "CREATED_AT": "Tue Feb 23 09:12:12 +0000 2021",
  "ID_STR": "1364140994308972544",
  "FULL_TEXT": "@danawallet jalan-jalan beli kaca, siap ditunggu ya kaa 😼",
  "USER": "oniginri"
 },
 {
  "CREATED_AT": "Tue Feb 23 09:11:11 +0000 2021",
  "ID_STR": "1364140740280942599",
  "FULL_TEXT": "RT @danawallet: Berhadiah Saldo DANA!\nMana Suit Yang Benar?\n23 - 28 Feb\n\nCaption\nSiapa yang jago main suit nih? Yuk ikutan sekarang, jawab…",
  "USER": "donurbi"
 },
 {
  "CREATED_AT": "Tue Feb 23 09:06:02 +0000 2021",
  "ID_STR": "1364139443511156740",
  "FULL_TEXT": "cdm min @danawallet yuk bisa yuk 🙏",
  "USER": "byuIhararg"
 },
 {
  "CREATED_AT": "Tue Feb 23 09:01:42 +0000 2021",
  "ID_STR": "1364138352476188673",
  "FULL_TEXT": "RT @danawallet: Berhadiah Saldo DANA!\nMana Suit Yang Benar?\n23 - 28 Feb\n\nCaption\nSiapa yang jago main suit nih? Yuk ikutan sekarang, jawab…",
  "USER": "hayucorner"
 },
 {
  "CREATED_AT": "Tue Feb 23 08:52:17 +0000 2021",
  "ID_STR": "1364135983348768771",
  "FULL_TEXT": "kak cek dm dong huhu :( @danawallet",
  "USER": "oniginri"
 },
 {
  "CREATED_AT": "Tue Feb 23 08:36:51 +0000 2021",
  "ID_STR": "1364132097846255622",
  "FULL_TEXT": "@danawallet miiiinnn tolong cek dm yaaaa",
  "USER": "shawvilimelfver"
 },
 {
  "CREATED_AT": "Tue Feb 23 08:33:06 +0000 2021",
  "ID_STR": "1364131153704222720",
  "FULL_TEXT": "@danawallet eh maksudnya respon DM kak",
  "USER": "p0tahoe"
 },
 {
  "CREATED_AT": "Tue Feb 23 08:28:52 +0000 2021",
  "ID_STR": "1364130092121645061",
  "FULL_TEXT": "@danawallet Akun @danasupport ini official ya?",
  "USER": "swagseokmin"
 },
 {
  "CREATED_AT": "Tue Feb 23 08:03:10 +0000 2021",
  "ID_STR": "1364123620654551045",
  "FULL_TEXT": "@danawallet kak boleh tolong respon wa nda yaa?? 🙏",
  "USER": "p0tahoe"
 },
 {
  "CREATED_AT": "Tue Feb 23 07:28:08 +0000 2021",
  "ID_STR": "1364114806223986690",
  "FULL_TEXT": "@danawallet hi bisa cek dm?",
  "USER": "swagseokmin"
 },
 {
  "CREATED_AT": "Tue Feb 23 07:26:42 +0000 2021",
  "ID_STR": "1364114444708581378",
  "FULL_TEXT": "@danawallet min cek dm",
  "USER": "daegaxl"
 },
 {
  "CREATED_AT": "Tue Feb 23 07:25:04 +0000 2021",
  "ID_STR": "1364114032626524164",
  "FULL_TEXT": "@danawallet Tlg bantu cek dong update nomor laporan 6213726",
  "USER": "franksahala"
 },
 {
  "CREATED_AT": "Tue Feb 23 07:05:16 +0000 2021",
  "ID_STR": "1364109052981047296",
  "FULL_TEXT": "@danawallet siang kak, cek dm yaa kakk, terimakasih",
  "USER": "puddohyun"
 },
 {
  "CREATED_AT": "Tue Feb 23 06:29:09 +0000 2021",
  "ID_STR": "1364099962506670081",
  "FULL_TEXT": "selamat siang admin @danawallet boleh minta waktunya untuk cek DM saya? terima kasih",
  "USER": "pattronous"
 },
 {
  "CREATED_AT": "Tue Feb 23 06:17:55 +0000 2021",
  "ID_STR": "1364097135856164868",
  "FULL_TEXT": "@danawallet Gak jadi, lamaaa",
  "USER": "privatelyone"
 },
 {
  "CREATED_AT": "Tue Feb 23 06:10:16 +0000 2021",
  "ID_STR": "1364095208833445892",
  "FULL_TEXT": "@danawallet cek dm min",
  "USER": "m4keithappen"
 },
 {
  "CREATED_AT": "Tue Feb 23 06:03:09 +0000 2021",
  "ID_STR": "1364093417823690756",
  "FULL_TEXT": "@danawallet cek DM min",
  "USER": "privatelyone"
 },
 {
  "CREATED_AT": "Tue Feb 23 06:01:22 +0000 2021",
  "ID_STR": "1364092971394551816",
  "FULL_TEXT": "RT @danawallet: @HerryF2210 Hi kak, jgn worry utk tarik saldo DANA km ga ada biaya admin nih 😊 pastiin akun DANA sdh premium yha. Thx -AN-",
  "USER": "HerryF2210"
 },
 {
  "CREATED_AT": "Tue Feb 23 06:00:59 +0000 2021",
  "ID_STR": "1364092874162204680",
  "FULL_TEXT": "@danawallet Halo, min. DANA pending nih, tf dari DANA ke Gopay tapi malah begini. Tolong direspon.",
  "USER": "privatelyone"
 },
 {
  "CREATED_AT": "Tue Feb 23 05:48:53 +0000 2021",
  "ID_STR": "1364089828803895296",
  "FULL_TEXT": "@danawallet elu lagi error juga kah",
  "USER": "broownsoogar"
 },
 {
  "CREATED_AT": "Tue Feb 23 05:45:04 +0000 2021",
  "ID_STR": "1364088868316672000",
  "FULL_TEXT": "@danawallet min tarik tunai di Alfamart biaya admin nya brpa?",
  "USER": "HerryF2210"
 },
 {
  "CREATED_AT": "Tue Feb 23 05:39:06 +0000 2021",
  "ID_STR": "1364087365535326213",
  "FULL_TEXT": "@erlinclau @danawallet jgn cm promo debit SC aja nder, promo dana yg lain juga 😍",
  "USER": "siskaaarama"
 },
 {
  "CREATED_AT": "Tue Feb 23 05:36:32 +0000 2021",
  "ID_STR": "1364086721948778501",
  "FULL_TEXT": "@andovikar @danawallet Iya twitter. Kan udh sempet WA,trs dianya nelpon,nanya2. Ujung2nya minta nomor kartu atm kita,ngeyel. Udh dimatiin telponnya,trs WA lagi,blokir. Kmrn nama akunnya @danawalets aku dah di blokir sama dianya sih.",
  "USER": "MWidyaaanti"
 },
 {
  "CREATED_AT": "Tue Feb 23 05:27:16 +0000 2021",
  "ID_STR": "1364084387101306882",
  "FULL_TEXT": "@danawallet halo, cek dm ya kak",
  "USER": "sadturday___"
 },
 {
  "CREATED_AT": "Tue Feb 23 05:17:21 +0000 2021",
  "ID_STR": "1364081893218471940",
  "FULL_TEXT": "@Inatanza @jkko_st @ovo_id @YLKI_ID @tokopedia @TokopediaCare @gopayindonesia @danawallet boikot aja lah datengin boothnya, dia yg bikin sistem blokir masa ga bisa buka blokir?",
  "USER": "comebacks18"
 },
 {
  "CREATED_AT": "Tue Feb 23 05:15:49 +0000 2021",
  "ID_STR": "1364081508881813508",
  "FULL_TEXT": "@danawallet @Haryomilano1 Hi kak, saya gabisa memperbarui profil padahal email saya tetap kak",
  "USER": "intanapril00"
 },
 {
  "CREATED_AT": "Tue Feb 23 04:56:02 +0000 2021",
  "ID_STR": "1364076529261547520",
  "FULL_TEXT": "@jkko_st @ovo_id @YLKI_ID @tokopedia @TokopediaCare @gopayindonesia @danawallet Sistem nya yg bermaslah malah costumer yg d rugikan... Main blokir aja... Hak orang d embat..",
  "USER": "Inatanza"
 },
 {
  "CREATED_AT": "Tue Feb 23 04:48:02 +0000 2021",
  "ID_STR": "1364074515467096067",
  "FULL_TEXT": "@danawallet min cek dm thanks",
  "USER": "ArfiDiaz"
 },
 {
  "CREATED_AT": "Tue Feb 23 04:42:15 +0000 2021",
  "ID_STR": "1364073061956214786",
  "FULL_TEXT": "@danawallet Okey, aku tunggu perkembangannya ya?",
  "USER": "HariNrAwalludin"
 },
 {
  "CREATED_AT": "Tue Feb 23 04:33:47 +0000 2021",
  "ID_STR": "1364070927739199488",
  "FULL_TEXT": "@danawallet Cek DM Ka",
  "USER": "HariNrAwalludin"
 },
 {
  "CREATED_AT": "Tue Feb 23 04:32:09 +0000 2021",
  "ID_STR": "1364070519637565450",
  "FULL_TEXT": "@andovikar @danawallet Udah aja jelasin masalahnya ilang dah bro wkwkwk",
  "USER": "goesredy"
 },
 {
  "CREATED_AT": "Tue Feb 23 04:25:05 +0000 2021",
  "ID_STR": "1364068741844111361",
  "FULL_TEXT": "@alyayusuf4 @danawallet @vidiodotcom dibekukan ya kak?? udah dapen verifikasi belom dari pihak dana?",
  "USER": "AdelaAloysius18"
 },
 {
  "CREATED_AT": "Tue Feb 23 04:24:13 +0000 2021",
  "ID_STR": "1364068522507206656",
  "FULL_TEXT": "@Diananasya @danawallet langsung chat wa nya aja nderr",
  "USER": "AdelaAloysius18"
 },
 {
  "CREATED_AT": "Tue Feb 23 04:23:59 +0000 2021",
  "ID_STR": "1364068465313677313",
  "FULL_TEXT": "Kak, dana ku pas upgrade ke premium di upgrade in sama temenku otomatis jadi pake ktp dia kan, kalo mau ganti bisa gak ya? Biar gak make ktp orang. Atau harus hapus akun? @danawallet",
  "USER": "inyour_mark"
 },
 {
  "CREATED_AT": "Tue Feb 23 04:22:51 +0000 2021",
  "ID_STR": "1364068176703545345",
  "FULL_TEXT": "@MWidyaaanti @danawallet ini twitter kan ya kak? tag coba username nya biar gak ada yang kena kena lagi kita report aja ramean, tuman nih penipu2 gini tuh",
  "USER": "andovikar"
 },
 {
  "CREATED_AT": "Tue Feb 23 04:21:24 +0000 2021",
  "ID_STR": "1364067812642230274",
  "FULL_TEXT": "@goesredy @danawallet mending coba langsung dm twitter nya aja kalo ngga nder wkwkwwk",
  "USER": "andovikar"
 },
 {
  "CREATED_AT": "Tue Feb 23 04:20:30 +0000 2021",
  "ID_STR": "1364067585105436672",
  "FULL_TEXT": "@gracia232323 @danawallet padahal kemaren sempet bisa ya nder, sempet nyoba gak?",
  "USER": "SiMailbinmail"
 },
 {
  "CREATED_AT": "Tue Feb 23 04:05:04 +0000 2021",
  "ID_STR": "1364063704535375872",
  "FULL_TEXT": "@danawallet min cek dm donggg",
  "USER": "regitanurh"
 },
 {
  "CREATED_AT": "Tue Feb 23 04:04:09 +0000 2021",
  "ID_STR": "1364063474054172673",
  "FULL_TEXT": "@danawallet cek dm sayang",
  "USER": "artipelukmu"
 },
 {
  "CREATED_AT": "Tue Feb 23 03:59:53 +0000 2021",
  "ID_STR": "1364062398466772994",
  "FULL_TEXT": "Min @danawallet tolong dibaca DM dari saya please.., situasi genting min",
  "USER": "wayans97"
 },
 {
  "CREATED_AT": "Tue Feb 23 03:57:34 +0000 2021",
  "ID_STR": "1364061814833647618",
  "FULL_TEXT": "@subtanyarl coba langsung chat cs dana @danawallet",
  "USER": "mmrtabak"
 },
 {
  "CREATED_AT": "Tue Feb 23 03:51:32 +0000 2021",
  "ID_STR": "1364060296956899331",
  "FULL_TEXT": "@danawallet cek DM min",
  "USER": "nanonanosalak"
 },
 {
  "CREATED_AT": "Tue Feb 23 03:21:25 +0000 2021",
  "ID_STR": "1364052718734569476",
  "FULL_TEXT": "kak tolong cek dm @danawallet",
  "USER": "KYUHARUJUN"
 },
 {
  "CREATED_AT": "Tue Feb 23 03:18:21 +0000 2021",
  "ID_STR": "1364051944495484928",
  "FULL_TEXT": "@danawallet pembelian kuota saya tidak masuk masuk dari semalam hanya sedang diproses.tolong refund dana saya",
  "USER": "Bambang49935520"
 },
 {
  "CREATED_AT": "Tue Feb 23 03:12:47 +0000 2021",
  "ID_STR": "1364050546324217862",
  "FULL_TEXT": "@danawallet Transaksi kirim uang saya belum selesai.. mohon penjelasannya",
  "USER": "rikifrancisko"
 },
 {
  "CREATED_AT": "Tue Feb 23 02:40:23 +0000 2021",
  "ID_STR": "1364042391750021124",
  "FULL_TEXT": "Dahlah trauma pake @danawallet transfer ke bank dibilang status udah berhasil tapi di rekening dicek gak ada dana yg masuk!!",
  "USER": "puddingslice"
 },
 {
  "CREATED_AT": "Tue Feb 23 02:34:13 +0000 2021",
  "ID_STR": "1364040839001903108",
  "FULL_TEXT": "@danawallet min tolong cek DM",
  "USER": "erkaka_"
 },
 {
  "CREATED_AT": "Tue Feb 23 00:03:55 +0000 2021",
  "ID_STR": "1364003014596431875",
  "FULL_TEXT": "@suvpen @danawallet hiks lama banget 😭😭",
  "USER": "jihoonswifeu_"
 },
 {
  "CREATED_AT": "Mon Feb 22 23:06:39 +0000 2021",
  "ID_STR": "1363988604855279620",
  "FULL_TEXT": "@danawallet Cek dm kak",
  "USER": "nanonanosalak"
 },
 {
  "CREATED_AT": "Mon Feb 22 22:55:18 +0000 2021",
  "ID_STR": "1363985747179491330",
  "FULL_TEXT": "@danawallet saya mau ubah no hp krn nomor yg lama hilang. Udah requeat by email tp ga ada email yang masuk. Tolong direspon.",
  "USER": "nanonanosalak"
 },
 {
  "CREATED_AT": "Mon Feb 22 22:43:21 +0000 2021",
  "ID_STR": "1363982739309953027",
  "FULL_TEXT": "Jadi kapan nih pembayaran @NetflixID bisa lewat @gopayindonesia @ovo_id @linkaja @danawallet (semua paket) / @Telkomsel @myXL @AXISgsm @IM3Ooredoo @triindonesia @smartfrenworld (khusus paket ponsel)?\n(D 13)",
  "USER": "WardiSamme218"
 },
 {
  "CREATED_AT": "Mon Feb 22 22:29:51 +0000 2021",
  "ID_STR": "1363979343525945346",
  "FULL_TEXT": "@danawallet Ko lama ya nahan saldo orang",
  "USER": "Sari34422129"
 },
 {
  "CREATED_AT": "Mon Feb 22 20:30:02 +0000 2021",
  "ID_STR": "1363949190246621185",
  "FULL_TEXT": "@danawallet halo kak bisa tolong cek dm, trims",
  "USER": "gajelasgitudah"
 },
 {
  "CREATED_AT": "Mon Feb 22 17:27:46 +0000 2021",
  "ID_STR": "1363903320587313159",
  "FULL_TEXT": "@erlinclau @danawallet iya dong dana, biar makin betah 🤭",
  "USER": "AndalusiaAngela"
 },
 {
  "CREATED_AT": "Mon Feb 22 17:14:07 +0000 2021",
  "ID_STR": "1363899885104164866",
  "FULL_TEXT": "@jkko_st @ovo_id @YLKI_ID @tokopedia @TokopediaCare @gopayindonesia @danawallet Memang ngambil hak orang lain itu enak, makanya koruptor masih banyak. Salah satunya ya @ovo_id",
  "USER": "Annas_LH"
 },
 {
  "CREATED_AT": "Mon Feb 22 16:50:17 +0000 2021",
  "ID_STR": "1363893889912856581",
  "FULL_TEXT": "@danawallet cek dm ya min",
  "USER": "puriofy"
 },
 {
  "CREATED_AT": "Mon Feb 22 16:44:33 +0000 2021",
  "ID_STR": "1363892444325060616",
  "FULL_TEXT": "@jihoonswifeu_ @danawallet hiksrot kac, ak 2 mingu setelah vidcal waktu itwu",
  "USER": "suvpen"
 },
 {
  "CREATED_AT": "Mon Feb 22 16:41:24 +0000 2021",
  "ID_STR": "1363891651588935680",
  "FULL_TEXT": "@jkko_st @ovo_id @YLKI_ID @tokopedia @TokopediaCare @gopayindonesia @danawallet Ini bukti pembelian giftcard tokopedia lewat \n@ultra_voucher\n total 9.000.000 rupiah, lalu saya redeem giftcard tokopedia \n@tokopedia\n jadi ovopoint \n@ovo_id\n tadi di email ga bisa d buka blokir nya, yaudah gapapa tapi uang saya yang d pake untuk beli giftcard itu gimana? Jadi 0 https://t.co/wlGrejXpRH",
  "USER": "erik_kantona"
 },
 {
  "CREATED_AT": "Mon Feb 22 16:40:22 +0000 2021",
  "ID_STR": "1363891393815486467",
  "FULL_TEXT": "@suvpen @danawallet udah senin kemarin 😭😭😭 tapi tetep aja gaada hasilnya 😭😭😭",
  "USER": "jihoonswifeu_"
 },
 {
  "CREATED_AT": "Mon Feb 22 16:39:01 +0000 2021",
  "ID_STR": "1363891054701727750",
  "FULL_TEXT": "@jihoonswifeu_ @danawallet udah sempet diajak vidcall ka?",
  "USER": "suvpen"
 },
 {
  "CREATED_AT": "Mon Feb 22 16:37:38 +0000 2021",
  "ID_STR": "1363890703554674691",
  "FULL_TEXT": "@suvpen @danawallet masih hiks :\") dari desember coba ga di benerin :\")",
  "USER": "jihoonswifeu_"
 },
 {
  "CREATED_AT": "Mon Feb 22 16:36:48 +0000 2021",
  "ID_STR": "1363890495642951681",
  "FULL_TEXT": "@jihoonswifeu_ @danawallet masih kena pembekuan kah kaa? akun ku juga sempat skrg sudah normal",
  "USER": "suvpen"
 },
 {
  "CREATED_AT": "Mon Feb 22 16:34:40 +0000 2021",
  "ID_STR": "1363889959623557121",
  "FULL_TEXT": "@danawallet DI TWITTER UPDATE TEROS GILIRAN NGATASI KELUHAN NASABAH NIHIL HASILNYA , HALAH BASI LO",
  "USER": "jihoonswifeu_"
 },
 {
  "CREATED_AT": "Mon Feb 22 16:34:04 +0000 2021",
  "ID_STR": "1363889807160614912",
  "FULL_TEXT": "@jkko_st @ovo_id @YLKI_ID @tokopedia @TokopediaCare @gopayindonesia @danawallet Raib ovopoint hasil redeem giftcard tokopedia jadi 0 gagal memuat, yang jelas2 saya beli di ultra voucher @ultra_voucher jelas2 pake uang tunai.. Ini maen blokir aja, tanpa ada kejelasan uang yang saya pake buat beli voucher tersebut https://t.co/ucP6PBMu9n",
  "USER": "erik_kantona"
 },
 {
  "CREATED_AT": "Mon Feb 22 16:33:05 +0000 2021",
  "ID_STR": "1363889558648090624",
  "FULL_TEXT": "RT @Diananasya: Tolong jgn selow dong. Dari desember sampai februari masa ga kelar2 meriksa keluhan org @danawallet",
  "USER": "jihoonswifeu_"
 },
 {
  "CREATED_AT": "Mon Feb 22 16:32:07 +0000 2021",
  "ID_STR": "1363889315399405568",
  "FULL_TEXT": "KAPOK PAKE DANA HAHAHAHAH SELAMAT PIHAK LO BIKIN GUE MARAH² TEROS TIAP HARI @danawallet IYUHH MALING DUIT NASABAH. UANG NASABAH DI TAHAN TANPA ALASAN YG JELAS, GILIRAN DITANYA KENAPA DITAHAN JAWABAN TEMPLATE TEROS WKWKKWKW",
  "USER": "jihoonswifeu_"
 },
 {
  "CREATED_AT": "Mon Feb 22 16:28:51 +0000 2021",
  "ID_STR": "1363888495819808777",
  "FULL_TEXT": "@danawallet halah sok²an bikin ituan. pihak lo aja hampir mau ngancurin bisnis gue gara² duit modal ketahan di dana payah lo",
  "USER": "jihoonswifeu_"
 },
 {
  "CREATED_AT": "Mon Feb 22 16:26:03 +0000 2021",
  "ID_STR": "1363887787934502914",
  "FULL_TEXT": "@danawallet sampe kapan sih? ikhlas ga si balikin duit gue? cape ya njink gue marah² mulu bikin gua dosa tau ga!",
  "USER": "jihoonswifeu_"
 },
 {
  "CREATED_AT": "Mon Feb 22 16:14:45 +0000 2021",
  "ID_STR": "1363884945702150145",
  "FULL_TEXT": "Minn, cek dm dariku cepat @danawallet",
  "USER": "bicenery"
 },
 {
  "CREATED_AT": "Mon Feb 22 16:11:14 +0000 2021",
  "ID_STR": "1363884062566273027",
  "FULL_TEXT": "@danawallet Min tolong cem dm saya",
  "USER": "ihza95597402"
 },
 {
  "CREATED_AT": "Mon Feb 22 16:11:05 +0000 2021",
  "ID_STR": "1363884025077592064",
  "FULL_TEXT": "@danawallet Min tolong cek dm",
  "USER": "ihza95597402"
 },
 {
  "CREATED_AT": "Mon Feb 22 16:10:59 +0000 2021",
  "ID_STR": "1363883996829032448",
  "FULL_TEXT": "@danawallet Min tolong cek dm",
  "USER": "ihza95597402"
 },
 {
  "CREATED_AT": "Mon Feb 22 16:09:24 +0000 2021",
  "ID_STR": "1363883599078912005",
  "FULL_TEXT": "@ovo_id kasihan yg ovopoint hasil belanja juga ikut diblokir, bahkan nominal sampai jutaan,\nauto menang banyak ovo @YLKI_ID @tokopedia @TokopediaCare @gopayindonesia @danawallet",
  "USER": "jkko_st"
 },
 {
  "CREATED_AT": "Mon Feb 22 16:02:30 +0000 2021",
  "ID_STR": "1363881862016290819",
  "FULL_TEXT": "@danawallet Oke kak, noted sudah saya dm",
  "USER": "justDOION"
 },
 {
  "CREATED_AT": "Mon Feb 22 15:16:03 +0000 2021",
  "ID_STR": "1363870173631901696",
  "FULL_TEXT": "@danawallet halo, mau tanya bos kenapa dari kemarin pembayaran pakai DANA di Apple Billing failed terus ya, pdhl saldo masih cukup, mohon pencerahanya.  Thx",
  "USER": "justDOION"
 },
 {
  "CREATED_AT": "Mon Feb 22 15:04:20 +0000 2021",
  "ID_STR": "1363867226986541062",
  "FULL_TEXT": "@danawallet harus berapa kali si aku verifikasi , lagi itu video call udah katanya 7 hari kerja ,sumpah ko gajelas sih suka banget persulit orang?",
  "USER": "jihoonswifeu_"
 },
 {
  "CREATED_AT": "Mon Feb 22 14:50:13 +0000 2021",
  "ID_STR": "1363863671299055617",
  "FULL_TEXT": "@erlinclau @danawallet iya bener kak, tambahin promo nya.. 😁😁😁",
  "USER": "CassandraZelda4"
 },
 {
  "CREATED_AT": "Mon Feb 22 14:49:25 +0000 2021",
  "ID_STR": "1363863470169497608",
  "FULL_TEXT": "@danawallet gitu aja terus",
  "USER": "chellaaras"
 },
 {
  "CREATED_AT": "Mon Feb 22 14:45:08 +0000 2021",
  "ID_STR": "1363862392904376320",
  "FULL_TEXT": "@danawallet Tolong dibantu min, atas nama Uswatun Khasanah 085785488997 https://t.co/a0fQE7qX5u",
  "USER": "uswamawardi"
 },
 {
  "CREATED_AT": "Mon Feb 22 14:10:38 +0000 2021",
  "ID_STR": "1363853709491404805",
  "FULL_TEXT": "@mutiarakhrnsaaa @danawallet Halo Sahabat, mohon maaf bisa diinfokan lokasi Alfamart yang Sahabat kunjungi? ^in",
  "USER": "alfamart"
 },
 {
  "CREATED_AT": "Mon Feb 22 13:48:47 +0000 2021",
  "ID_STR": "1363848213636157440",
  "FULL_TEXT": "@danawallet butuh solusi, chat cs @danawallet lempar ke @AkulakuCare gitu aja trus selama 4 bulan gada solusi https://t.co/IvelxIpyc8",
  "USER": "AntJuzt"
 },
 {
  "CREATED_AT": "Mon Feb 22 13:40:38 +0000 2021",
  "ID_STR": "1363846160029347841",
  "FULL_TEXT": "@danawallet Tanggal tua, duit di hold dana. Makin susah dah hidup.",
  "USER": "FeliksLesmana"
 },
 {
  "CREATED_AT": "Mon Feb 22 13:40:10 +0000 2021",
  "ID_STR": "1363846043146747909",
  "FULL_TEXT": "@danawallet cape ah daritadi ngomongnya gt terus tp dm gak di waro jg",
  "USER": "chellaaras"
 },
 {
  "CREATED_AT": "Mon Feb 22 13:40:10 +0000 2021",
  "ID_STR": "1363846043146747909",
  "FULL_TEXT": "@danawallet cape ah daritadi ngomongnya gt terus tp dm gak di waro jg",
  "USER": "chellaaras"
 },
 {
  "CREATED_AT": "Mon Feb 22 13:33:01 +0000 2021",
  "ID_STR": "1363844244717268997",
  "FULL_TEXT": "@danawallet SUMPAH EMANG KEKNYA LO GAADA ABIS²NYA BIKIN GUE KESEL, MASIH AJA DANA GUA DI TAHAN YA NJIR. INI UDAH 7 HARI SETELAH LO VIDCALL GUE TERUS GIMANA NASIB DANA GUE HAH?!!!",
  "USER": "jihoonswifeu_"
 },
 {
  "CREATED_AT": "Mon Feb 22 13:29:43 +0000 2021",
  "ID_STR": "1363843414844796928",
  "FULL_TEXT": "@danawallet INI DANA GUA GIMANA",
  "USER": "jihoonswifeu_"
 },
 {
  "CREATED_AT": "Mon Feb 22 13:25:43 +0000 2021",
  "ID_STR": "1363842406752296966",
  "FULL_TEXT": "@danawallet min cek dm",
  "USER": "staticelave"
 },
 {
  "CREATED_AT": "Mon Feb 22 13:11:43 +0000 2021",
  "ID_STR": "1363838883515957250",
  "FULL_TEXT": "min @danawallet cdm lg yaa🥺",
  "USER": "bajinkgan"
 },
 {
  "CREATED_AT": "Mon Feb 22 13:10:38 +0000 2021",
  "ID_STR": "1363838611938975745",
  "FULL_TEXT": "@danawallet min cek dm",
  "USER": "lotsoo15"
 },
 {
  "CREATED_AT": "Mon Feb 22 12:49:32 +0000 2021",
  "ID_STR": "1363833303028039682",
  "FULL_TEXT": "@danawallet tt-tapi tadi diriku sudah ke 2 alfamart n 1 alfamidi katanya gabisa:(",
  "USER": "mutiarakhrnsaaa"
 },
 {
  "CREATED_AT": "Mon Feb 22 12:48:21 +0000 2021",
  "ID_STR": "1363833002774597634",
  "FULL_TEXT": "@danawallet @GoodLifeBCA Cek DM min..  sy ada tanya",
  "USER": "rbs2663"
 },
 {
  "CREATED_AT": "Mon Feb 22 12:46:49 +0000 2021",
  "ID_STR": "1363832618941259780",
  "FULL_TEXT": "@erlinclau @danawallet setujuuuuuu. hahaha",
  "USER": "AdelaAloysius18"
 },
 {
  "CREATED_AT": "Mon Feb 22 12:19:25 +0000 2021",
  "ID_STR": "1363825720179396612",
  "FULL_TEXT": "@danawallet cek dm min, ada yang mau saya tanyain",
  "USER": "brightwinIuvs"
 },
 {
  "CREATED_AT": "Mon Feb 22 12:17:24 +0000 2021",
  "ID_STR": "1363825216745443334",
  "FULL_TEXT": "@alfamart blm bisa jajan pake @danawallet kah?",
  "USER": "mutiarakhrnsaaa"
 },
 {
  "CREATED_AT": "Mon Feb 22 12:16:07 +0000 2021",
  "ID_STR": "1363824891804327943",
  "FULL_TEXT": "@danawallet Saya dah dapet email verifikasi tapi malah ngga bisa, verifikasinya gagal, sepertinya linknya expired ya🥺dah ngirim ulang tapi belum ada email lagi🥺 https://t.co/8PEZukVVkp",
  "USER": "bicenery"
 },
 {
  "CREATED_AT": "Mon Feb 22 12:02:27 +0000 2021",
  "ID_STR": "1363821450432368643",
  "FULL_TEXT": "@danawallet Udah min.., dijawab ya",
  "USER": "wayans97"
 },
 {
  "CREATED_AT": "Mon Feb 22 11:51:55 +0000 2021",
  "ID_STR": "1363818802543124480",
  "FULL_TEXT": "capek digosthing mulu sama @danawallet",
  "USER": "chellaaras"
 },
 {
  "CREATED_AT": "Mon Feb 22 11:50:10 +0000 2021",
  "ID_STR": "1363818362619355146",
  "FULL_TEXT": "@danawallet Hallo kak,saya kan belum sempat dm ttg keluhan saya kmrn di dm. Eh ada yg mau nipu loh kak tiba2 dm mengatasnamakan dana,td saya ga perhatiin nama akunnya,untung ga kegocek pas td sempat saya WA. https://t.co/tMkAKlpAO2",
  "USER": "MWidyaaanti"
 },
 {
  "CREATED_AT": "Mon Feb 22 11:44:37 +0000 2021",
  "ID_STR": "1363816962715832322",
  "FULL_TEXT": "@danawallet ini udah seminggu ko dana ku masih belom bisa hey :(",
  "USER": "jihoonswifeu_"
 },
 {
  "CREATED_AT": "Mon Feb 22 11:44:32 +0000 2021",
  "ID_STR": "1363816944164462595",
  "FULL_TEXT": "@danawallet min cek dm ku yukk:)",
  "USER": "udahjajanbelom"
 },
 {
  "CREATED_AT": "Mon Feb 22 11:39:26 +0000 2021",
  "ID_STR": "1363815659788931075",
  "FULL_TEXT": "@danawallet cek dm min :(",
  "USER": "taegonalley"
 },
 {
  "CREATED_AT": "Mon Feb 22 11:36:50 +0000 2021",
  "ID_STR": "1363815007159349253",
  "FULL_TEXT": "Tolong jgn selow dong. Dari desember sampai februari masa ga kelar2 meriksa keluhan org @danawallet",
  "USER": "Diananasya"
 },
 {
  "CREATED_AT": "Mon Feb 22 11:35:15 +0000 2021",
  "ID_STR": "1363814608826368002",
  "FULL_TEXT": "Min @danawallet, ini gimana ya akun saya dari desember ga bisa login. Di minta tlpn ke cs, sdh saya tlpn. Di minta untuk menunggu sampai sekarang ga diproses2 kah emang? Jadi gimana kelanjutannya?",
  "USER": "Diananasya"
 },
 {
  "CREATED_AT": "Mon Feb 22 11:33:42 +0000 2021",
  "ID_STR": "1363814219267805187",
  "FULL_TEXT": "@erlinclau @danawallet wah, mantap nder",
  "USER": "AfganHendrakus1"
 },
 {
  "CREATED_AT": "Mon Feb 22 11:32:53 +0000 2021",
  "ID_STR": "1363814012706693128",
  "FULL_TEXT": "RT @erlinclau: Hey @danawallet. Tambahin lagi dongg promo debit SC nyaa. Biar tambah sering pake Dana. Hehehehe.",
  "USER": "AfganHendrakus1"
 },
 {
  "CREATED_AT": "Mon Feb 22 11:31:47 +0000 2021",
  "ID_STR": "1363813732938227717",
  "FULL_TEXT": "@danawallet dari kemaren bilang bgt mulu",
  "USER": "chellaaras"
 },
 {
  "CREATED_AT": "Mon Feb 22 11:31:07 +0000 2021",
  "ID_STR": "1363813567871422464",
  "FULL_TEXT": "RT @FeliksLesmana: @danawallet BACOT. LU BACA DULU HISTORY SBLM NGMG. Sampah banget dah ini CS Kykny",
  "USER": "nanda94638827"
 },
 {
  "CREATED_AT": "Mon Feb 22 11:31:05 +0000 2021",
  "ID_STR": "1363813557003898880",
  "FULL_TEXT": "RT @FeliksLesmana: @danawallet Ngmg sama CS di DM lu sana. Ga jelas tuh orang malah suruh ngejelasin lgi dri awal. Bener2 ancur pelayananny…",
  "USER": "nanda94638827"
 },
 {
  "CREATED_AT": "Mon Feb 22 11:29:51 +0000 2021",
  "ID_STR": "1363813250425524231",
  "FULL_TEXT": "@danawallet Cek lg dong",
  "USER": "shintavrl_"
 },
 {
  "CREATED_AT": "Mon Feb 22 11:19:20 +0000 2021",
  "ID_STR": "1363810601097596929",
  "FULL_TEXT": "@indahalwayswin @danawallet aku ada masalah kak, aku gakbisa transfer pake dana karena salah pin padahal gak mungkin banget orang aki sering transaksi pake dana! terus lg komplen ke csnya slowrespon banget",
  "USER": "chellaaras"
 },
 {
  "CREATED_AT": "Mon Feb 22 11:14:22 +0000 2021",
  "ID_STR": "1363809352029593600",
  "FULL_TEXT": "@chellaaras @danawallet Kenapa kak ?",
  "USER": "indahalwayswin"
 },
 {
  "CREATED_AT": "Mon Feb 22 11:13:15 +0000 2021",
  "ID_STR": "1363809072777109505",
  "FULL_TEXT": "@danawallet cek dm dong min",
  "USER": "shintavrl_"
 },
 {
  "CREATED_AT": "Mon Feb 22 11:12:51 +0000 2021",
  "ID_STR": "1363808970452832258",
  "FULL_TEXT": "@danawallet @wiacked MINN CEK DM",
  "USER": "chellaaras"
 },
 {
  "CREATED_AT": "Mon Feb 22 11:07:45 +0000 2021",
  "ID_STR": "1363807688358907905",
  "FULL_TEXT": "cape bgt aku nungguin kamu min @danawallet",
  "USER": "chellaaras"
 },
 {
  "CREATED_AT": "Mon Feb 22 10:59:17 +0000 2021",
  "ID_STR": "1363805556004192259",
  "FULL_TEXT": "@danawallet Di twitter update terus, tp WA, Email tidak ada balasan masalah dengan QRIS",
  "USER": "goesredy"
 },
 {
  "CREATED_AT": "Mon Feb 22 10:57:52 +0000 2021",
  "ID_STR": "1363805197743525888",
  "FULL_TEXT": "@danawallet tolong cek dm please",
  "USER": "Yourgfffff"
 },
 {
  "CREATED_AT": "Mon Feb 22 10:57:03 +0000 2021",
  "ID_STR": "1363804993543761926",
  "FULL_TEXT": "@danawallet @sugarxpoison DM AKU BLUM DIJAWAB...  HIII GEMES UDAH DIKASIH APA YG KAMU MINTA LO PADAHAL",
  "USER": "chellaaras"
 },
 {
  "CREATED_AT": "Mon Feb 22 10:49:45 +0000 2021",
  "ID_STR": "1363803157654949888",
  "FULL_TEXT": "RT @jihoonswifeu_: posisi kalian ketika lagi sakit keras dan uang yg kalian kumpulkan ketika kalian sehat tertahan sama pihak dana dan posi…",
  "USER": "lu5iwd"
 },
 {
  "CREATED_AT": "Mon Feb 22 10:49:23 +0000 2021",
  "ID_STR": "1363803063291502596",
  "FULL_TEXT": "@danawallet @vidiodotcom Min cek DM",
  "USER": "akangsemangka"
 },
 {
  "CREATED_AT": "Mon Feb 22 10:47:50 +0000 2021",
  "ID_STR": "1363802672827035648",
  "FULL_TEXT": "RT @jihoonswifeu_: PERUSAHAAN TERKENAL , DAN DIBILANG E WALLET TERPECAYA TAPI APA HASILNYA PENIPU , UANG NASABAH YG DITAHAN DI DANA DIAMBIL…",
  "USER": "lu5iwd"
 },
 {
  "CREATED_AT": "Mon Feb 22 10:46:05 +0000 2021",
  "ID_STR": "1363802235138838529",
  "FULL_TEXT": "@danawallet @sugarxpoison meluncur kemana min",
  "USER": "chellaaras"
 },
 {
  "CREATED_AT": "Mon Feb 22 10:45:03 +0000 2021",
  "ID_STR": "1363801972625694722",
  "FULL_TEXT": "@Annas_LH @jkko_st @ovo_id @gopayindonesia @danawallet Bener banget, ini hasil dari belanja sama redeem giftcard tokopedia @tokopedia hilang gitu aja.. Cashback yg 20.000 di tarik lagi aja gpp",
  "USER": "erik_kantona"
 },
 {
  "CREATED_AT": "Mon Feb 22 10:41:12 +0000 2021",
  "ID_STR": "1363801004072833025",
  "FULL_TEXT": "@erik_kantona @jkko_st @ovo_id @gopayindonesia @danawallet Iya makanya kak masih untung cuma ratusan ribu. Padahal kita mah fair aja mau dapetin cashback, pas beli pulsa/vocer juga bener buat pribadi. Harusnya dari ovo sendiri jangan diblokir karena blokir bukan solusi, tinggal tarik aja cashbacknya selesai masalah.",
  "USER": "Annas_LH"
 },
 {
  "CREATED_AT": "Mon Feb 22 10:39:51 +0000 2021",
  "ID_STR": "1363800664858484737",
  "FULL_TEXT": "@danawallet cek dm min",
  "USER": "bolayzean"
 },
 {
  "CREATED_AT": "Mon Feb 22 10:39:33 +0000 2021",
  "ID_STR": "1363800590795436035",
  "FULL_TEXT": "@danawallet Gimane jgn worry ayolah min fast fast",
  "USER": "kinnnzz"
 },
 {
  "CREATED_AT": "Mon Feb 22 10:39:25 +0000 2021",
  "ID_STR": "1363800557689835526",
  "FULL_TEXT": "@danawallet cek dm min👌",
  "USER": "drunkenburn"
 },
 {
  "CREATED_AT": "Mon Feb 22 10:35:40 +0000 2021",
  "ID_STR": "1363799612197249025",
  "FULL_TEXT": "@Annas_LH @jkko_st @ovo_id @gopayindonesia @danawallet Mending kak ratusan ribu, saya ovopoint ampir 6.400.000 ilang gitu aja, hasil topup dari giftcard tokopedia yang saya beli pake uang ini hilang gt aja",
  "USER": "erik_kantona"
 },
 {
  "CREATED_AT": "Mon Feb 22 10:34:40 +0000 2021",
  "ID_STR": "1363799359838560259",
  "FULL_TEXT": "@danawallet Min cek dm🙏 ,dana saya udah 3 bulan gabisa transaksi mohon segera diperbaiki https://t.co/N8yTu7GA3x",
  "USER": "alyayusuf4"
 },
 {
  "CREATED_AT": "Mon Feb 22 10:25:57 +0000 2021",
  "ID_STR": "1363797168092446727",
  "FULL_TEXT": "RT @qomar_id_: Kak @danawallet mohon bantuan.\nKami baru saja mengalami penipuan\n\nKronologi :\nWa Ayah saya diretas \u0026amp; menyebarkan pesan utk m…",
  "USER": "bagasnurirhamni"
 },
 {
  "CREATED_AT": "Mon Feb 22 10:25:20 +0000 2021",
  "ID_STR": "1363797012072730628",
  "FULL_TEXT": "@danawallet Admin be like tapi boongggg",
  "USER": "wiacked"
 },
 {
  "CREATED_AT": "Mon Feb 22 10:25:07 +0000 2021",
  "ID_STR": "1363796956015775744",
  "FULL_TEXT": "Min @danawallet saldo di dana gak bisa buat transfer ke virtual akun ya?",
  "USER": "wayans97"
 },
 {
  "CREATED_AT": "Mon Feb 22 10:17:18 +0000 2021",
  "ID_STR": "1363794990476926976",
  "FULL_TEXT": "@danawallet Meluncur dr mana si min 😭",
  "USER": "kinnnzz"
 },
 {
  "CREATED_AT": "Mon Feb 22 10:11:19 +0000 2021",
  "ID_STR": "1363793486273675265",
  "FULL_TEXT": "@danawallet bantu min soalnya ini penting bgt",
  "USER": "watiketi"
 },
 {
  "CREATED_AT": "Mon Feb 22 10:10:05 +0000 2021",
  "ID_STR": "1363793175299514368",
  "FULL_TEXT": "@danawallet Meluncur doang ga nyampe nyampe",
  "USER": "kinnnzz"
 },
 {
  "CREATED_AT": "Mon Feb 22 10:01:24 +0000 2021",
  "ID_STR": "1363790988020391937",
  "FULL_TEXT": "@danawallet  Cek dm dong saldonya nyangkut 😭",
  "USER": "watiketi"
 },
 {
  "CREATED_AT": "Mon Feb 22 09:58:15 +0000 2021",
  "ID_STR": "1363790194563047425",
  "FULL_TEXT": "RT @qomar_id_: Kak @danawallet mohon bantuan.\nKami baru saja mengalami penipuan\n\nKronologi :\nWa Ayah saya diretas \u0026amp; menyebarkan pesan utk m…",
  "USER": "ipdanrama"
 },
 {
  "CREATED_AT": "Mon Feb 22 09:55:38 +0000 2021",
  "ID_STR": "1363789539920207874",
  "FULL_TEXT": "Hey @danawallet. Tambahin lagi dongg promo debit SC nyaa. Biar tambah sering pake Dana. Hehehehe.",
  "USER": "erlinclau"
 },
 {
  "CREATED_AT": "Mon Feb 22 09:54:18 +0000 2021",
  "ID_STR": "1363789204010897408",
  "FULL_TEXT": "@danawallet Tolong balas lagi dm ku wahai ka admin SK atau FN🥺",
  "USER": "puddingslice"
 },
 {
  "CREATED_AT": "Mon Feb 22 09:38:43 +0000 2021",
  "ID_STR": "1363785279878922242",
  "FULL_TEXT": "@danawallet @vidiodotcom Min cek dm. sampai sekarang transaksi saya selalu eror,udah 3 bulan dana saya eror dan udah dilaporin juga tapi sampai sekarang ga ada perubahan.mohon bantuannya https://t.co/K8T8rGZGXR",
  "USER": "alyayusuf4"
 },
 {
  "CREATED_AT": "Mon Feb 22 09:37:09 +0000 2021",
  "ID_STR": "1363784885131862017",
  "FULL_TEXT": "RT @qomar_id_: Kak @danawallet mohon bantuan.\nKami baru saja mengalami penipuan\n\nKronologi :\nWa Ayah saya diretas \u0026amp; menyebarkan pesan utk m…",
  "USER": "SatherheadPart2"
 },
 {
  "CREATED_AT": "Mon Feb 22 09:36:10 +0000 2021",
  "ID_STR": "1363784640696184834",
  "FULL_TEXT": "@jkko_st @ovo_id @gopayindonesia @danawallet Parah emang, padahal salah dia sendiri masih ada bug. Untung saya masih ratusan ribu ovo pointnya. Pindah e wallet inimah kalo sampe ga terselesaikan kendalanya",
  "USER": "Annas_LH"
 },
 {
  "CREATED_AT": "Mon Feb 22 09:34:18 +0000 2021",
  "ID_STR": "1363784169386434563",
  "FULL_TEXT": "@danawallet cek dm kak ayooo cepatsss",
  "USER": "kinnnzz"
 },
 {
  "CREATED_AT": "Mon Feb 22 09:28:14 +0000 2021",
  "ID_STR": "1363782641611198466",
  "FULL_TEXT": "@Annas_LH @ovo_id Iya parah bener ini @ovo_id , mending @gopayindonesia  atau @danawallet , gara\" receh 20k kasihan yg ovopointnya jutaan raib hasil belanja tokped",
  "USER": "jkko_st"
 },
 {
  "CREATED_AT": "Mon Feb 22 09:25:55 +0000 2021",
  "ID_STR": "1363782058175172615",
  "FULL_TEXT": "@danawallet cek dm min",
  "USER": "wiacked"
 },
 {
  "CREATED_AT": "Mon Feb 22 09:24:54 +0000 2021",
  "ID_STR": "1363781805057339396",
  "FULL_TEXT": "@danawallet apakah rek.DANA pelaku bisa dibekukan?\nAgar tidak ada korban lagi\n\nKami sudah mencoba menghubungi DANA lewat WA\nNamun blm ada respon\n\nMohon untuk segera ditindak lanjuti",
  "USER": "qomar_id_"
 },
 {
  "CREATED_AT": "Mon Feb 22 09:23:11 +0000 2021",
  "ID_STR": "1363781370871357443",
  "FULL_TEXT": "Kak @danawallet mohon bantuan.\nKami baru saja mengalami penipuan\n\nKronologi :\nWa Ayah saya diretas \u0026amp; menyebarkan pesan utk mengirimkan sejumlah uang\nDan sudah ada korban yg kena tipu\n\nPelaku menggunakan rekening DANA utk transaksi\n\nBerikut bukti transfer dari korban https://t.co/rFrZTFcBwY",
  "USER": "qomar_id_"
 },
 {
  "CREATED_AT": "Mon Feb 22 09:20:26 +0000 2021",
  "ID_STR": "1363780680698654720",
  "FULL_TEXT": "@danawallet cek dm kak",
  "USER": "kinnnzz"
 },
 {
  "CREATED_AT": "Mon Feb 22 08:39:54 +0000 2021",
  "ID_STR": "1363770480595927045",
  "FULL_TEXT": "@FeliksLesmana @danawallet Un-install berjamaah lah. Payahhh.",
  "USER": "IdaMuliani"
 },
 {
  "CREATED_AT": "Mon Feb 22 08:39:52 +0000 2021",
  "ID_STR": "1363770470223417354",
  "FULL_TEXT": "@danawallet cek DM plis min",
  "USER": "mandiirrr"
 },
 {
  "CREATED_AT": "Mon Feb 22 08:36:51 +0000 2021",
  "ID_STR": "1363769711066902536",
  "FULL_TEXT": "@danawallet Belum ada balasan, kak.",
  "USER": "innerechild"
 },
 {
  "CREATED_AT": "Mon Feb 22 08:35:59 +0000 2021",
  "ID_STR": "1363769493210603521",
  "FULL_TEXT": "@joesukasuka @danawallet Woh emg ga kerja itu tim internalny. Duit saya nyangkut udah 2 minggu gaada kabar. Emg CS ny ga mutu ini aplikasi.",
  "USER": "FeliksLesmana"
 },
 {
  "CREATED_AT": "Mon Feb 22 08:35:10 +0000 2021",
  "ID_STR": "1363769287010250757",
  "FULL_TEXT": "@danawallet BACOT. LU BACA DULU HISTORY SBLM NGMG. Sampah banget dah ini CS Kykny",
  "USER": "FeliksLesmana"
 },
 {
  "CREATED_AT": "Mon Feb 22 08:29:31 +0000 2021",
  "ID_STR": "1363767864755318785",
  "FULL_TEXT": "Halooo cek dm yaaa uang saya yg ada di dana gak ratusan ribu kak 😌😌😌 @danawallet",
  "USER": "setokaiba09"
 },
 {
  "CREATED_AT": "Mon Feb 22 08:22:34 +0000 2021",
  "ID_STR": "1363766117479555072",
  "FULL_TEXT": "@danawallet kak cek dm dongg",
  "USER": "innerechild"
 },
 {
  "CREATED_AT": "Mon Feb 22 08:05:26 +0000 2021",
  "ID_STR": "1363761804204122113",
  "FULL_TEXT": "@danawallet udh ku bales min",
  "USER": "MozaOrz"
 },
 {
  "CREATED_AT": "Mon Feb 22 07:47:22 +0000 2021",
  "ID_STR": "1363757259541516289",
  "FULL_TEXT": "@danawallet oke ditunggu ya min. semoga bisa selesai biar bisa top up lagi. udah enak bgt pake DANA soalnya. sayang kl bank BRI gak bisa top up di DANA",
  "USER": "gracia232323"
 },
 {
  "CREATED_AT": "Mon Feb 22 07:41:24 +0000 2021",
  "ID_STR": "1363755757599035399",
  "FULL_TEXT": "@danawallet cek dm ya min",
  "USER": "MozaOrz"
 },
 {
  "CREATED_AT": "Mon Feb 22 07:24:35 +0000 2021",
  "ID_STR": "1363751524443123714",
  "FULL_TEXT": "@danawallet Mana belum ada balesan",
  "USER": "m4keithappen"
 },
 {
  "CREATED_AT": "Mon Feb 22 07:18:17 +0000 2021",
  "ID_STR": "1363749938849411073",
  "FULL_TEXT": "@danawallet @sugarxpoison dm aku juga dong",
  "USER": "chellaaras"
 },
 {
  "CREATED_AT": "Mon Feb 22 07:13:17 +0000 2021",
  "ID_STR": "1363748681325760514",
  "FULL_TEXT": "@danawallet ayo cek dm. aku sampe bosen 🙂",
  "USER": "rafberi"
 },
 {
  "CREATED_AT": "Mon Feb 22 07:08:02 +0000 2021",
  "ID_STR": "1363747359000125442",
  "FULL_TEXT": "@danawallet cek Dm,makasi",
  "USER": "JeonWonMind"
 },
 {
  "CREATED_AT": "Mon Feb 22 07:01:13 +0000 2021",
  "ID_STR": "1363745642766495744",
  "FULL_TEXT": "@danawallet mau verifikasi email tapi tautan belum dikirim",
  "USER": "BudiSulist10"
 },
 {
  "CREATED_AT": "Mon Feb 22 06:59:09 +0000 2021",
  "ID_STR": "1363745123750744065",
  "FULL_TEXT": "@danawallet cek dm please",
  "USER": "fleurdlyss"
 },
 {
  "CREATED_AT": "Mon Feb 22 06:56:29 +0000 2021",
  "ID_STR": "1363744453257617408",
  "FULL_TEXT": "@danawallet lama ya balesnya. . .",
  "USER": "rafberi"
 },
 {
  "CREATED_AT": "Mon Feb 22 06:50:38 +0000 2021",
  "ID_STR": "1363742980138393600",
  "FULL_TEXT": "@danawallet cek DM min",
  "USER": "m4keithappen"
 },
 {
  "CREATED_AT": "Mon Feb 22 06:50:11 +0000 2021",
  "ID_STR": "1363742867194146818",
  "FULL_TEXT": "@danawallet @imabsquatulate Cek DM min",
  "USER": "m4keithappen"
 },
 {
  "CREATED_AT": "Mon Feb 22 06:16:11 +0000 2021",
  "ID_STR": "1363734311023742976",
  "FULL_TEXT": "@joesukasuka @danawallet Spill aja kaaa , biar di proses",
  "USER": "imabsquatulate"
 },
 {
  "CREATED_AT": "Mon Feb 22 06:03:30 +0000 2021",
  "ID_STR": "1363731119854690305",
  "FULL_TEXT": "RT @danawallet: Saksikan pertandingan 16 Besar Los Blancos vs The Blues tanggal 24 Feb 2021 pukul 03.00 WIB di @vidiodotcom \u0026amp; bayarnya paka…",
  "USER": "KurniawanRicho"
 },
 {
  "CREATED_AT": "Mon Feb 22 05:54:29 +0000 2021",
  "ID_STR": "1363728848785866753",
  "FULL_TEXT": "@danawallet tolong cek dm min",
  "USER": "haelvlyy"
 },
 {
  "CREATED_AT": "Mon Feb 22 05:53:47 +0000 2021",
  "ID_STR": "1363728673694605313",
  "FULL_TEXT": "@danawallet @vidiodotcom Kak, cek DM ya.",
  "USER": "TaKbuZi"
 },
 {
  "CREATED_AT": "Mon Feb 22 05:52:20 +0000 2021",
  "ID_STR": "1363728309226332161",
  "FULL_TEXT": "Punya ak dah 2 bulan masih dibekuin coba, udah verif vidcall, masih blm bisa login dan uang gak kembali @danawallet https://t.co/7PFBl8Bjk8",
  "USER": "joesukasuka"
 },
 {
  "CREATED_AT": "Mon Feb 22 05:50:52 +0000 2021",
  "ID_STR": "1363727938852589568",
  "FULL_TEXT": "@danawallet min kapan selesainya akun saya masih dibekukan, tidak bisa login. Udah 2 bulan lebih lho, tim internal DANA gmn sih kerjanya..",
  "USER": "joesukasuka"
 },
 {
  "CREATED_AT": "Mon Feb 22 05:36:32 +0000 2021",
  "ID_STR": "1363724333772795904",
  "FULL_TEXT": "@danawallet miiin ini kenawhyyy mau isi pulsa error teroooz 😢😢😢",
  "USER": "euphoriyou"
 },
 {
  "CREATED_AT": "Mon Feb 22 05:35:29 +0000 2021",
  "ID_STR": "1363724068172693505",
  "FULL_TEXT": "@danawallet @GoodLifeBCA Min ini mau isi pulsa napa error mulu dahhh?\nIndihum baik2 aja juga",
  "USER": "euphoriyou"
 },
 {
  "CREATED_AT": "Mon Feb 22 05:35:23 +0000 2021",
  "ID_STR": "1363724043401142272",
  "FULL_TEXT": "@danawallet Min cek DM ya mau memfollow up problem yang terjadi di dana saya",
  "USER": "rizkailla"
 },
 {
  "CREATED_AT": "Mon Feb 22 05:34:22 +0000 2021",
  "ID_STR": "1363723789683486724",
  "FULL_TEXT": "@dithaanggraini @danawallet Mjb ..\nIya ih sama, mana butuh bgt saldo disana HIKS",
  "USER": "euphoriyou"
 },
 {
  "CREATED_AT": "Mon Feb 22 05:34:19 +0000 2021",
  "ID_STR": "1363723777343819779",
  "FULL_TEXT": "@danawallet Ngmg sama CS di DM lu sana. Ga jelas tuh orang malah suruh ngejelasin lgi dri awal. Bener2 ancur pelayanannya.",
  "USER": "FeliksLesmana"
 },
 {
  "CREATED_AT": "Mon Feb 22 05:24:49 +0000 2021",
  "ID_STR": "1363721384245956609",
  "FULL_TEXT": "@imabsquatulate @danawallet Oke. Makasih ya kak infonya. Sedih bet. Uang jualan di sana",
  "USER": "Diananasya"
 },
 {
  "CREATED_AT": "Mon Feb 22 05:23:27 +0000 2021",
  "ID_STR": "1363721042825412612",
  "FULL_TEXT": "@danawallet Banyak errornya.. bikin resah.. bye",
  "USER": "S01000100"
 },
 {
  "CREATED_AT": "Mon Feb 22 05:23:04 +0000 2021",
  "ID_STR": "1363720944263467014",
  "FULL_TEXT": "@danawallet Ga ah.. udah ga percaya sama dana lagi",
  "USER": "S01000100"
 },
 {
  "CREATED_AT": "Mon Feb 22 05:22:43 +0000 2021",
  "ID_STR": "1363720856682131459",
  "FULL_TEXT": "@Diananasya @danawallet Aku ngga pernah lewat telfon sih, tapi yang paling valid jawabannya tuh dm twitter menurutku. Di spill lewat tweet aja pasti di komen kalo kamu ngetag mereka",
  "USER": "imabsquatulate"
 },
 {
  "CREATED_AT": "Mon Feb 22 05:22:42 +0000 2021",
  "ID_STR": "1363720853221904384",
  "FULL_TEXT": "@danawallet cek dm plis thanks",
  "USER": "rahmahanifah"
 },
 {
  "CREATED_AT": "Mon Feb 22 05:18:30 +0000 2021",
  "ID_STR": "1363719794667622401",
  "FULL_TEXT": "@imabsquatulate @danawallet Via tlpn cs cpt ga ya kak?\nApa lewat ig/twitter aja? Dri desember. Danaku ga bsa login",
  "USER": "Diananasya"
 }
]