[
 {
  "CREATED_AT": "Tue Jan 26 07:49:01 +0000 2021",
  "ID_STR": "1353973200871251969",
  "FULL_TEXT": "@danawallet Tolong cek dm min",
  "USER": "baksujoy"
 },
 {
  "CREATED_AT": "Tue Jan 26 07:41:41 +0000 2021",
  "ID_STR": "1353971355436240897",
  "FULL_TEXT": "Dear @smartfrencare @smartfrenworld saya beli paket smartfren di @danawallet dr kemarin kenapa ga bs ya? https://t.co/MYq063jfEG",
  "USER": "HariandiLion_D"
 },
 {
  "CREATED_AT": "Tue Jan 26 07:30:39 +0000 2021",
  "ID_STR": "1353968579968831489",
  "FULL_TEXT": "@danawallet Udah aku colek, ayo dibls mimin",
  "USER": "bobamanies"
 },
 {
  "CREATED_AT": "Tue Jan 26 07:26:15 +0000 2021",
  "ID_STR": "1353967471145828352",
  "FULL_TEXT": "@danawallet Kak cek dm dong",
  "USER": "nelsirmd"
 },
 {
  "CREATED_AT": "Tue Jan 26 07:23:49 +0000 2021",
  "ID_STR": "1353966861717659649",
  "FULL_TEXT": "@danawallet Sy bs ksh ss jwbn yg diberikan via cs twitter, dm dan wa sama smua krn template, tlg donk @ojkindonesia @MediaKonsumenID ...dana modal usaha sy jgn ditahan2 gini",
  "USER": "tweetwanshan"
 },
 {
  "CREATED_AT": "Tue Jan 26 07:17:09 +0000 2021",
  "ID_STR": "1353965183673135104",
  "FULL_TEXT": "@danawallet cek dm kk data saya udh saya kirim",
  "USER": "hrsrafiq"
 },
 {
  "CREATED_AT": "Tue Jan 26 07:10:00 +0000 2021",
  "ID_STR": "1353963380764073984",
  "FULL_TEXT": "Dan pagi ini gw dateng ke kantor cabangnya langsung dan ternyata gw kena tindakan penipuan, orangnya ngambil saldo gw ke akun DANA @danawallet  nya dan itu ga bisa terdeteksi siapa pelakunya",
  "USER": "baksujoy"
 },
 {
  "CREATED_AT": "Tue Jan 26 07:09:47 +0000 2021",
  "ID_STR": "1353963329010675712",
  "FULL_TEXT": "@bobamanies @andreana81 @PermataBank @danawallet Hi Ibu @bobamanies, mohon maaf atas ketidaknyamannya. Terkait hal tersebut Bank Permata akan memproses tindak lanjut penipuan tersebut berdasarkan surat LOI/Bilateral dari Bank pengirim dananya. Tks ~ Mega",
  "USER": "PermataCare"
 },
 {
  "CREATED_AT": "Tue Jan 26 07:01:49 +0000 2021",
  "ID_STR": "1353961324485636096",
  "FULL_TEXT": "@danawallet Lihat sendiri kan jwbnnya bbrp mgg spt ini trus tdk ada kejelasan dan estimasi wkt, tlg donk @ojkindonesia @MediaKonsumenID",
  "USER": "tweetwanshan"
 },
 {
  "CREATED_AT": "Tue Jan 26 06:48:21 +0000 2021",
  "ID_STR": "1353957936154910723",
  "FULL_TEXT": "@danawallet cek DM min",
  "USER": "eg1pratama"
 },
 {
  "CREATED_AT": "Tue Jan 26 06:37:09 +0000 2021",
  "ID_STR": "1353955117003804672",
  "FULL_TEXT": "@danawallet @ojkindonesia @MediaKonsumenID Di masa pandemi gini modal usaha malah ditahan2 spt ini @ojkindonesia @MediaKonsumenID",
  "USER": "tweetwanshan"
 },
 {
  "CREATED_AT": "Tue Jan 26 06:32:44 +0000 2021",
  "ID_STR": "1353954004523343875",
  "FULL_TEXT": "@danawallet Tlg @ojkindonesia @MediaKonsumenID , bbrp mgg cm dikasih jwbnya spt ini tnp kejelasan sama skali",
  "USER": "tweetwanshan"
 },
 {
  "CREATED_AT": "Tue Jan 26 06:26:02 +0000 2021",
  "ID_STR": "1353952317670715393",
  "FULL_TEXT": "@danawallet @ojkindonesia @MediaKonsumenID tlg dana sy ditahan bbrp minggu gk ada kejelasan sama skali",
  "USER": "tweetwanshan"
 },
 {
  "CREATED_AT": "Tue Jan 26 06:22:27 +0000 2021",
  "ID_STR": "1353951416339972097",
  "FULL_TEXT": "@danawallet Iya, makasih banyak kak 😍",
  "USER": "ashgombal"
 },
 {
  "CREATED_AT": "Tue Jan 26 06:15:38 +0000 2021",
  "ID_STR": "1353949702119542784",
  "FULL_TEXT": "@danawallet @ashgombal cek DM min,",
  "USER": "ponkopong"
 },
 {
  "CREATED_AT": "Tue Jan 26 06:13:21 +0000 2021",
  "ID_STR": "1353949125696319491",
  "FULL_TEXT": "@danawallet cek DM ya min.",
  "USER": "bbaayiw"
 },
 {
  "CREATED_AT": "Tue Jan 26 06:07:42 +0000 2021",
  "ID_STR": "1353947702669701121",
  "FULL_TEXT": "@danawallet @ashgombal @ojkindonesia @MediaKonsumenID Hrs brp korban lg agar mslh ini jd perhatian kalian!!!",
  "USER": "tweetwanshan"
 },
 {
  "CREATED_AT": "Tue Jan 26 06:06:39 +0000 2021",
  "ID_STR": "1353947438248169472",
  "FULL_TEXT": "@danawallet Di apa kak? Jangan ngegantungin akuu😭😭",
  "USER": "minkokiciw"
 },
 {
  "CREATED_AT": "Tue Jan 26 06:06:20 +0000 2021",
  "ID_STR": "1353947360246730752",
  "FULL_TEXT": "@danawallet @ashgombal 2mgg jwbnnya gini trus...tlg @ojkindonesia , @MediaKonsumenID",
  "USER": "tweetwanshan"
 },
 {
  "CREATED_AT": "Tue Jan 26 06:03:54 +0000 2021",
  "ID_STR": "1353946747781795840",
  "FULL_TEXT": "@danawallet harus berapa lama lagi aku harus menunggu hah?",
  "USER": "jihoonswifeu_"
 },
 {
  "CREATED_AT": "Tue Jan 26 06:01:38 +0000 2021",
  "ID_STR": "1353946176010117122",
  "FULL_TEXT": "@danawallet @ashgombal @ojkindonesia @MediaKonsumenID Bbrp minggu gk ada progressnya sama skali, cm disuruh nunggu trus tnp kejelasan",
  "USER": "tweetwanshan"
 },
 {
  "CREATED_AT": "Tue Jan 26 06:00:01 +0000 2021",
  "ID_STR": "1353945772148936704",
  "FULL_TEXT": "@danawallet @ashgombal Tlg donk @ojkindonesia, @mediakonsumenid, sdh byk korban ini",
  "USER": "tweetwanshan"
 },
 {
  "CREATED_AT": "Tue Jan 26 05:59:14 +0000 2021",
  "ID_STR": "1353945572504268801",
  "FULL_TEXT": "@RifatNajmi @danawallet Penasaran gua replynya apaan",
  "USER": "aritianta"
 },
 {
  "CREATED_AT": "Tue Jan 26 05:58:01 +0000 2021",
  "ID_STR": "1353945266966073345",
  "FULL_TEXT": "@danawallet @ashgombal Janji 2hr kerja sdh normal, teryt zonk",
  "USER": "tweetwanshan"
 },
 {
  "CREATED_AT": "Tue Jan 26 05:57:39 +0000 2021",
  "ID_STR": "1353945174318043136",
  "FULL_TEXT": "@danawallet cek dm kk ko dana seenaknya gini ya",
  "USER": "bullchain99"
 },
 {
  "CREATED_AT": "Tue Jan 26 05:57:15 +0000 2021",
  "ID_STR": "1353945073054932992",
  "FULL_TEXT": "@danawallet @ashgombal Chat wa diputusin sepihak",
  "USER": "tweetwanshan"
 },
 {
  "CREATED_AT": "Tue Jan 26 05:57:02 +0000 2021",
  "ID_STR": "1353945020399665153",
  "FULL_TEXT": "@danawallet min, sekarang gabisa tf dari bank bri ke dana ya?",
  "USER": "minkokiciw"
 },
 {
  "CREATED_AT": "Tue Jan 26 05:56:41 +0000 2021",
  "ID_STR": "1353944930708643840",
  "FULL_TEXT": "@danawallet @hrsrafiq dm kk saya juga",
  "USER": "bullchain99"
 },
 {
  "CREATED_AT": "Tue Jan 26 05:56:38 +0000 2021",
  "ID_STR": "1353944920638189568",
  "FULL_TEXT": "@PermataCare @andreana81 @PermataBank Saya melakukan transfer melalui aplikasi @danawallet dn sudah membuat laporan tapi balasan pihak dana seperti ini https://t.co/a48bAmFZvl",
  "USER": "bobamanies"
 },
 {
  "CREATED_AT": "Tue Jan 26 05:56:20 +0000 2021",
  "ID_STR": "1353944844121460737",
  "FULL_TEXT": "@danawallet @ashgombal Sama nih...dana ditahan2",
  "USER": "tweetwanshan"
 },
 {
  "CREATED_AT": "Tue Jan 26 05:39:00 +0000 2021",
  "ID_STR": "1353940483320422406",
  "FULL_TEXT": "@evie__yu @danawallet @BANKBRI_ID @kontakBRI Halo kak,Mohon maaf atas ketidaknyamanannya.\nUntuk informasi lebih lanjut silakan kakak hubungi BANK BRI\nLiveChat WhastApp klik dibawah ini \nhttps://t.co/WGGoAZh3Lz Tks-Tiara",
  "USER": "BANKBRI84444490"
 },
 {
  "CREATED_AT": "Tue Jan 26 05:37:44 +0000 2021",
  "ID_STR": "1353940163290746880",
  "FULL_TEXT": "@danawallet ngurus ganti nomor HP lambat sekali prosesnya. Udah telpon CS tetep aja by WA, udah WA trus antri CS lagi, ee dihubunginya tengah malem, udah gitu kalo gak dibales dalam 2 menit di end chat sama CS. Malesin",
  "USER": "ooktta"
 },
 {
  "CREATED_AT": "Tue Jan 26 05:34:58 +0000 2021",
  "ID_STR": "1353939468793745409",
  "FULL_TEXT": "Semoga @danawallet jadi beneran aman 😅 https://t.co/xWhpRR7DlX",
  "USER": "quratengil"
 },
 {
  "CREATED_AT": "Tue Jan 26 05:32:04 +0000 2021",
  "ID_STR": "1353938737546158080",
  "FULL_TEXT": "@evie__yu @danawallet @BANKBRI_ID @kontakBRI Halo kak, Mohon maaf atas ketidaknyamanannya. Untuk informasi lebih lanjut silahkan kakak hubungi BRI LiveChat WhatsApp klik link di bawah ini.\nhttps://t.co/s4E6XUPBnM Ya kak. Tks ~ Rendi saputra-",
  "USER": "KontakB12174610"
 },
 {
  "CREATED_AT": "Tue Jan 26 05:31:23 +0000 2021",
  "ID_STR": "1353938565051281408",
  "FULL_TEXT": "@danawallet Kapan sih Dana \u0026amp; @BANKBRI_ID @kontakBRI rujuk lagi?\nLama bgttt, susah top up tauuu.. :(",
  "USER": "evie__yu"
 },
 {
  "CREATED_AT": "Tue Jan 26 05:30:08 +0000 2021",
  "ID_STR": "1353938248632987649",
  "FULL_TEXT": "@danawallet saya mau ngirim uang kenapa ga bisa ya kk ? https://t.co/xUxdt1xMm5",
  "USER": "hrsrafiq"
 },
 {
  "CREATED_AT": "Tue Jan 26 05:17:34 +0000 2021",
  "ID_STR": "1353935088606605313",
  "FULL_TEXT": "@danawallet ka mohon cek dm",
  "USER": "deeeeeeth"
 },
 {
  "CREATED_AT": "Tue Jan 26 05:02:41 +0000 2021",
  "ID_STR": "1353931341083992066",
  "FULL_TEXT": "@danawallet boleh cek dm kak?",
  "USER": "kaluopsia"
 },
 {
  "CREATED_AT": "Tue Jan 26 04:43:26 +0000 2021",
  "ID_STR": "1353926497174581248",
  "FULL_TEXT": "Yaa ALLAH.. BRImo gangguan lagi kah? Or lagi ngelawak :(\nIni masih pake saldo @danawallet yg kemarin, belum top up lagi.\nApa kabar bisnis kita klo gangguan terus BRImo nya :D https://t.co/jkejwMpzTK",
  "USER": "evie__yu"
 },
 {
  "CREATED_AT": "Tue Jan 26 04:27:51 +0000 2021",
  "ID_STR": "1353922576481828865",
  "FULL_TEXT": "@danawallet tolong bales dm ya kak , Makasih",
  "USER": "hallochingu"
 },
 {
  "CREATED_AT": "Tue Jan 26 04:13:57 +0000 2021",
  "ID_STR": "1353919076968538112",
  "FULL_TEXT": "Sampe kapan min gabisa diakses.. :( @danawallet @BANKBRI_ID https://t.co/LaTROrl2ol",
  "USER": "uwubangetkah"
 },
 {
  "CREATED_AT": "Tue Jan 26 03:50:42 +0000 2021",
  "ID_STR": "1353913227181101056",
  "FULL_TEXT": "@danawallet Min tolong cek DM lagi yaa",
  "USER": "mbauwl"
 },
 {
  "CREATED_AT": "Tue Jan 26 02:58:59 +0000 2021",
  "ID_STR": "1353900212264300545",
  "FULL_TEXT": "@danawallet admin tolong cek dm ya",
  "USER": "shxtkhb"
 },
 {
  "CREATED_AT": "Tue Jan 26 02:46:04 +0000 2021",
  "ID_STR": "1353896962270126081",
  "FULL_TEXT": "@loeyro @danawallet Iya kak serius ni kena lagi akun Dana aku",
  "USER": "kvcik"
 },
 {
  "CREATED_AT": "Tue Jan 26 02:41:00 +0000 2021",
  "ID_STR": "1353895688384389126",
  "FULL_TEXT": "Tolong cek dm dong @danawallet udah hampir satu bulan dana saya error hehe 😊",
  "USER": "ashgombal"
 },
 {
  "CREATED_AT": "Tue Jan 26 02:20:31 +0000 2021",
  "ID_STR": "1353890533576331266",
  "FULL_TEXT": "@kvcik @danawallet eh? serius kak? parah bgt dana. danaku lama bgt belom balik2😭",
  "USER": "loeyro"
 },
 {
  "CREATED_AT": "Tue Jan 26 02:20:22 +0000 2021",
  "ID_STR": "1353890495081062400",
  "FULL_TEXT": "@danawallet pagii, tolong cek dm ya min. terimakasih",
  "USER": "kiddfie"
 },
 {
  "CREATED_AT": "Tue Jan 26 02:10:26 +0000 2021",
  "ID_STR": "1353887993887653889",
  "FULL_TEXT": "@danawallet Cek min sudah aku DM 🙃",
  "USER": "kvcik"
 },
 {
  "CREATED_AT": "Tue Jan 26 02:03:26 +0000 2021",
  "ID_STR": "1353886232816869378",
  "FULL_TEXT": "@danawallet baru aja sehari sembuh , eh kambuh lagi 🤣 https://t.co/xIMNLlEKqc",
  "USER": "kvcik"
 },
 {
  "CREATED_AT": "Tue Jan 26 01:58:01 +0000 2021",
  "ID_STR": "1353884869793783808",
  "FULL_TEXT": "@danawallet DANA lagi system busy terus min?",
  "USER": "glxscy"
 },
 {
  "CREATED_AT": "Tue Jan 26 01:31:37 +0000 2021",
  "ID_STR": "1353878223864557569",
  "FULL_TEXT": "@danawallet cek dm ya min",
  "USER": "burnsunday"
 },
 {
  "CREATED_AT": "Tue Jan 26 01:26:08 +0000 2021",
  "ID_STR": "1353876847075811328",
  "FULL_TEXT": "@chenleeve @danawallet Yups saya juga kemaren gtu kak akun ga valid aja",
  "USER": "nurulhasanah21_"
 },
 {
  "CREATED_AT": "Tue Jan 26 01:24:15 +0000 2021",
  "ID_STR": "1353876373446684672",
  "FULL_TEXT": "@danawallet udah kak",
  "USER": "hazslnut"
 },
 {
  "CREATED_AT": "Tue Jan 26 01:20:29 +0000 2021",
  "ID_STR": "1353875424955273217",
  "FULL_TEXT": "@danawallet selamat pagi, tolong cek dm ya admin, makasih!",
  "USER": "Biancoriza"
 },
 {
  "CREATED_AT": "Tue Jan 26 01:17:59 +0000 2021",
  "ID_STR": "1353874796002463745",
  "FULL_TEXT": "@danawallet halo, min ini kenapa ya udah 5 hari nggak jadi-jadi kode qris aku 😔✊ https://t.co/I5cM75P2rk",
  "USER": "hazslnut"
 },
 {
  "CREATED_AT": "Tue Jan 26 01:16:12 +0000 2021",
  "ID_STR": "1353874344494043137",
  "FULL_TEXT": "@danawallet okee cek dm ya",
  "USER": "chenleeve"
 },
 {
  "CREATED_AT": "Tue Jan 26 01:07:08 +0000 2021",
  "ID_STR": "1353872064680103936",
  "FULL_TEXT": "selamat pagi @danawallet saya ingin mengajukan keluhan. \n\ntadi saya mau top up saldo di alfa tapi ternyata tdk bisa. \"akunnya belum valid, belum terverifikasi\" padahal akun saya premium. tapi memang beberapa hari lalu saya ganti nomor, kayaknya masalahnya disitu. mohon bantuannya",
  "USER": "chenleeve"
 },
 {
  "CREATED_AT": "Tue Jan 26 00:27:26 +0000 2021",
  "ID_STR": "1353862072598032384",
  "FULL_TEXT": "@danawallet woi bales dm",
  "USER": "hpeonju"
 },
 {
  "CREATED_AT": "Mon Jan 25 23:53:25 +0000 2021",
  "ID_STR": "1353853512858263552",
  "FULL_TEXT": "@danawallet Sudah tak dm kok gadibales",
  "USER": "hmmfi_"
 },
 {
  "CREATED_AT": "Mon Jan 25 23:48:25 +0000 2021",
  "ID_STR": "1353852256500609025",
  "FULL_TEXT": "@danawallet Ga dlu🙂",
  "USER": "dafareall"
 },
 {
  "CREATED_AT": "Mon Jan 25 23:29:03 +0000 2021",
  "ID_STR": "1353847382299971584",
  "FULL_TEXT": "RT @hmmfi_: Gue udah ngurus ke @danawallet @danasupport buat follow up akun gue, tapi mereka bilang terus menerus akun gue gabisa balik lag…",
  "USER": "hmmfi_"
 },
 {
  "CREATED_AT": "Mon Jan 25 23:28:53 +0000 2021",
  "ID_STR": "1353847339706847232",
  "FULL_TEXT": "RT @hmmfi_: @danawallet @danasupport lo juga, lo lebih mihak si pelapor yang beneran gue kagett karena dia ngelapor gue nipu album sama lig…",
  "USER": "hmmfi_"
 },
 {
  "CREATED_AT": "Mon Jan 25 23:16:15 +0000 2021",
  "ID_STR": "1353844158755008513",
  "FULL_TEXT": "@danawallet WEGAH! GONTA GANTI ADMIN WAE",
  "USER": "hmmfi_"
 },
 {
  "CREATED_AT": "Mon Jan 25 23:07:32 +0000 2021",
  "ID_STR": "1353841964853039106",
  "FULL_TEXT": "Gue udah ngurus ke @danawallet @danasupport buat follow up akun gue, tapi mereka bilang terus menerus akun gue gabisa balik lagi. Terus gue di telpon @danasupport. Awalnya admin YN ini bilang kalo akun dana gue dibekuin sama salah satu reader gue di Wattpad. Gue gatau siapa. https://t.co/lkRFnBqrDh",
  "USER": "hmmfi_"
 },
 {
  "CREATED_AT": "Mon Jan 25 22:58:07 +0000 2021",
  "ID_STR": "1353839594781872128",
  "FULL_TEXT": "@danawallet @danasupport lo juga, lo lebih mihak si pelapor yang beneran gue kagett karena dia ngelapor gue nipu album sama lightstick! SHIT?",
  "USER": "hmmfi_"
 },
 {
  "CREATED_AT": "Mon Jan 25 22:43:33 +0000 2021",
  "ID_STR": "1353835930033872898",
  "FULL_TEXT": "@danawallet Siap, ditunggu balasannya min",
  "USER": "sindusonyw"
 },
 {
  "CREATED_AT": "Mon Jan 25 22:27:21 +0000 2021",
  "ID_STR": "1353831853392707584",
  "FULL_TEXT": "Cek dm min @danawallet",
  "USER": "sindusonyw"
 },
 {
  "CREATED_AT": "Mon Jan 25 22:23:48 +0000 2021",
  "ID_STR": "1353830961205534721",
  "FULL_TEXT": "@danawallet Halo akun dana saya tidak bisa melakukan pembayaran, cek DM pls",
  "USER": "jamesbounty1"
 },
 {
  "CREATED_AT": "Mon Jan 25 21:14:47 +0000 2021",
  "ID_STR": "1353813591154020352",
  "FULL_TEXT": "@danawallet cek DM min.",
  "USER": "muhammadagungp_"
 },
 {
  "CREATED_AT": "Mon Jan 25 18:14:55 +0000 2021",
  "ID_STR": "1353768325193506816",
  "FULL_TEXT": "@danawallet @muchtarluthfi27 Eh Namjoon lg.",
  "USER": "nadyagitaaaaa"
 },
 {
  "CREATED_AT": "Mon Jan 25 17:30:10 +0000 2021",
  "ID_STR": "1353757064573534208",
  "FULL_TEXT": "@danawallet Sudah saya dm lagi ka",
  "USER": "bucinekakuu"
 },
 {
  "CREATED_AT": "Mon Jan 25 17:18:50 +0000 2021",
  "ID_STR": "1353754213096951808",
  "FULL_TEXT": "@danawallet kak mohon cek dm ya terima kasih",
  "USER": "bucinekakuu"
 },
 {
  "CREATED_AT": "Mon Jan 25 17:01:07 +0000 2021",
  "ID_STR": "1353749753612300288",
  "FULL_TEXT": "@bbyzeuss @danawallet piw yg nipu begini yg harusnya dibekuin",
  "USER": "dongqiss"
 },
 {
  "CREATED_AT": "Mon Jan 25 16:50:12 +0000 2021",
  "ID_STR": "1353747008733888512",
  "FULL_TEXT": "@danawallet Jangan lama lama ya min",
  "USER": "arif_railfans1"
 },
 {
  "CREATED_AT": "Mon Jan 25 16:42:05 +0000 2021",
  "ID_STR": "1353744963830308865",
  "FULL_TEXT": "@danawallet Cek DM min, sudah saya DM tadi",
  "USER": "arif_railfans1"
 },
 {
  "CREATED_AT": "Mon Jan 25 16:33:25 +0000 2021",
  "ID_STR": "1353742781856976901",
  "FULL_TEXT": "@kontakBRI ini BRI yang ngaco apa @danawallet yang eror.? saya ngirim duit ke rekening BRI, tapi di akun dana masih pending. 🤦",
  "USER": "arif_railfans1"
 },
 {
  "CREATED_AT": "Mon Jan 25 16:10:11 +0000 2021",
  "ID_STR": "1353736938235203588",
  "FULL_TEXT": "@singandpaint @smartfrencare @danawallet Yup, isi pulsa 20rb, resiko isi ulang banyak2, pulsa bisa melayang..",
  "USER": "Andika15_"
 },
 {
  "CREATED_AT": "Mon Jan 25 16:00:45 +0000 2021",
  "ID_STR": "1353734563286061065",
  "FULL_TEXT": "@danawallet Cek dm dong",
  "USER": "jungvykook"
 },
 {
  "CREATED_AT": "Mon Jan 25 15:39:40 +0000 2021",
  "ID_STR": "1353729255637618688",
  "FULL_TEXT": "@danawallet permisi admin mau tanya, ini kenapa top up dari ibanking BR1 gak bisa ya? Udah beberapa minggu ini",
  "USER": "haechandeeul"
 },
 {
  "CREATED_AT": "Mon Jan 25 15:39:05 +0000 2021",
  "ID_STR": "1353729110007115777",
  "FULL_TEXT": "Anying bet dah, niat mo lapor kendala di @BANKBRI_ID malah yang dateng penipu 😌\nEmang paling bener ngurus yg kek gini ke CS langsung, klo e wallet masih bisa lah lewat sosmed kek @danawallet @gopayindonesia @ovo_id https://t.co/VulToe7dds",
  "USER": "muchtarluthfi27"
 },
 {
  "CREATED_AT": "Mon Jan 25 15:15:27 +0000 2021",
  "ID_STR": "1353723162970611719",
  "FULL_TEXT": "@HariandiLion_D @danawallet @danasupport Ko aku lancar za bro trx pulsanya",
  "USER": "Mahboeb5"
 },
 {
  "CREATED_AT": "Mon Jan 25 15:07:04 +0000 2021",
  "ID_STR": "1353721051994177538",
  "FULL_TEXT": "@danawallet Dasar goblok",
  "USER": "Sari34422129"
 },
 {
  "CREATED_AT": "Mon Jan 25 14:49:42 +0000 2021",
  "ID_STR": "1353716682980683776",
  "FULL_TEXT": "@danawallet Huyy udah di DM drtd kaga di bales et dah...",
  "USER": "HariandiLion_D"
 },
 {
  "CREATED_AT": "Mon Jan 25 14:35:08 +0000 2021",
  "ID_STR": "1353713014948597761",
  "FULL_TEXT": "@WanXman @danawallet @danasupport Udah pernah DM di ig.. Tapi gk di respon mas.. Sekitar dua minggu lalu.. \nYa maklum.. Orang besar gitu gk mungkin bales dm orng orng kecil seperti kami :)\nSiapa tau dgn begini beliau bisa ngeliat dan cepat di tindak lanjut",
  "USER": "Angah_Put"
 },
 {
  "CREATED_AT": "Mon Jan 25 14:30:22 +0000 2021",
  "ID_STR": "1353711817709641728",
  "FULL_TEXT": "@Angah_Put @danawallet @danasupport Udh coba hub putra siregarnya belum mas?",
  "USER": "WanXman"
 },
 {
  "CREATED_AT": "Mon Jan 25 14:27:54 +0000 2021",
  "ID_STR": "1353711194968788993",
  "FULL_TEXT": "@WanXman @danawallet @danasupport Udah pernah di dm mas.. Karna dia tau langsung di bloknya mas",
  "USER": "Angah_Put"
 },
 {
  "CREATED_AT": "Mon Jan 25 14:26:29 +0000 2021",
  "ID_STR": "1353710839694454787",
  "FULL_TEXT": "@danawallet Gua udah mention. Lu duluan yg DM lah. Males beth.",
  "USER": "HariandiLion_D"
 },
 {
  "CREATED_AT": "Mon Jan 25 14:25:59 +0000 2021",
  "ID_STR": "1353710714075025409",
  "FULL_TEXT": "@Angah_Put @danawallet @danasupport Oia jelas itu 100% penipuan mas  , harga hp nya aja sudah gak masuk akal kok . Semua jaminan yg mereka kirim juga palsu semua . Tes aja coba DM  pura2 beli ajakin rekber shopee atau tokped pasti gk bakal mau",
  "USER": "WanXman"
 },
 {
  "CREATED_AT": "Mon Jan 25 14:25:54 +0000 2021",
  "ID_STR": "1353710690536574978",
  "FULL_TEXT": "@danawallet @WanXman Iya kak.. Thanks responnya.. Secepatnya saya kasih tau biar langsung dm kaka nanti",
  "USER": "Angah_Put"
 },
 {
  "CREATED_AT": "Mon Jan 25 14:25:20 +0000 2021",
  "ID_STR": "1353710548894969856",
  "FULL_TEXT": "@danawallet Maaf dana saat ini ada gangguan ya....saya tidak bisa masuk akun dana. Terimakasih",
  "USER": "Junkayaraya58"
 },
 {
  "CREATED_AT": "Mon Jan 25 14:23:55 +0000 2021",
  "ID_STR": "1353710194425880576",
  "FULL_TEXT": "@WanXman @danawallet @danasupport Tapi itu termasuk penipuan kan mas.. Temen juga gk masalahin uangnya walau pun sebenarnya cukup besar. Yg jelas biar gak ada korban aja lagi",
  "USER": "Angah_Put"
 },
 {
  "CREATED_AT": "Mon Jan 25 14:21:48 +0000 2021",
  "ID_STR": "1353709661648691201",
  "FULL_TEXT": "@Angah_Put @danawallet @danasupport Biarpun di usut sampe pelaku ketangkep dipenjara tetap aja sih duit gk bakal balik , malah yg  ada nambah keluar duit buat urus ini itu , ikhlas aja tuhan nanti kasih yg lebih insya allah sabar aja ☺️",
  "USER": "WanXman"
 },
 {
  "CREATED_AT": "Mon Jan 25 14:19:24 +0000 2021",
  "ID_STR": "1353709055315898368",
  "FULL_TEXT": "@WanXman @danawallet @danasupport Iya mas.. Itu tdi.. Saya kasian sama temen aja sih.. Karna udah tf 1.3 dan udah terlanjur juga jdi dia tf lagi ke kurirnya.. Bodohnya lagi temen ini udah terjadi baru ngomong gk kosultasi dlu",
  "USER": "Angah_Put"
 },
 {
  "CREATED_AT": "Mon Jan 25 14:12:55 +0000 2021",
  "ID_STR": "1353707426499858432",
  "FULL_TEXT": "@Angah_Put @danawallet @danasupport Perjanjian awal dengan seller sudah free ongkir , kenapa masih ngirim uang ke kurir sampe jutaan pula ampun dahh",
  "USER": "WanXman"
 },
 {
  "CREATED_AT": "Mon Jan 25 14:11:05 +0000 2021",
  "ID_STR": "1353706964816023552",
  "FULL_TEXT": "@danawallet Dana ga asik lagi ah ada biaya tf kurang dari 50k",
  "USER": "IPU_KTH0130"
 },
 {
  "CREATED_AT": "Mon Jan 25 14:07:30 +0000 2021",
  "ID_STR": "1353706062382153728",
  "FULL_TEXT": "@Angah_Put Follow @danawallet  @danasupport kirim dm atau kirim email , ceritakan kronologinya , minta pembekuan akun kalo bisa minta data pelaku siapa tau masih satu wilayah bisa langsung di serok",
  "USER": "WanXman"
 },
 {
  "CREATED_AT": "Mon Jan 25 14:02:00 +0000 2021",
  "ID_STR": "1353704677796274177",
  "FULL_TEXT": "@dafareall @danawallet asiappppp ka dapa ucapin ultah dong ak ultah skrg:",
  "USER": "akunakuwangi"
 },
 {
  "CREATED_AT": "Mon Jan 25 14:01:34 +0000 2021",
  "ID_STR": "1353704568433958913",
  "FULL_TEXT": "@danawallet halo min saya ada kesalahan trf apa bisa dibantu?",
  "USER": "iamhansuhm"
 },
 {
  "CREATED_AT": "Mon Jan 25 14:00:39 +0000 2021",
  "ID_STR": "1353704337638191104",
  "FULL_TEXT": "@akunakuwangi bentar syg, duid aku lg ditahan sama @danawallet",
  "USER": "dafareall"
 },
 {
  "CREATED_AT": "Mon Jan 25 13:47:50 +0000 2021",
  "ID_STR": "1353701111744532481",
  "FULL_TEXT": "Lagi ada gangguan kah? @danawallet https://t.co/nZnzdflkzk",
  "USER": "HariandiLion_D"
 },
 {
  "CREATED_AT": "Mon Jan 25 13:47:50 +0000 2021",
  "ID_STR": "1353701111744532481",
  "FULL_TEXT": "Lagi ada gangguan kah? @danawallet https://t.co/nZnzdflkzk",
  "USER": "HariandiLion_D"
 },
 {
  "CREATED_AT": "Mon Jan 25 13:39:03 +0000 2021",
  "ID_STR": "1353698904454295556",
  "FULL_TEXT": "Dear @danawallet @danasupport \nIni kok isi paketan/ pulsa via dana error terus ya. https://t.co/Y8EGGBHxt3",
  "USER": "HariandiLion_D"
 },
 {
  "CREATED_AT": "Mon Jan 25 13:22:12 +0000 2021",
  "ID_STR": "1353694661832028162",
  "FULL_TEXT": "@danawallet cek dm min",
  "USER": "aphrodictae"
 },
 {
  "CREATED_AT": "Mon Jan 25 13:20:11 +0000 2021",
  "ID_STR": "1353694153771683842",
  "FULL_TEXT": "@danawallet manaaa ga adaa",
  "USER": "bbyzeuss"
 },
 {
  "CREATED_AT": "Mon Jan 25 13:09:15 +0000 2021",
  "ID_STR": "1353691404610936832",
  "FULL_TEXT": "Mon maap nih ye @danawallet , aku mau transfer nih, jangan system busy mulu yak, jangan2 duitku kamu pake dulu (?)",
  "USER": "haryomukti"
 },
 {
  "CREATED_AT": "Mon Jan 25 13:04:51 +0000 2021",
  "ID_STR": "1353690296018636800",
  "FULL_TEXT": "@danawallet @BinsarChairul Min dmku bales juga dongg",
  "USER": "bbyzeuss"
 },
 {
  "CREATED_AT": "Mon Jan 25 12:58:11 +0000 2021",
  "ID_STR": "1353688620058570754",
  "FULL_TEXT": "Hey @BANKBRI_ID ko sekarang gabisa topup @danawallet dari brimob ya? \nWhy?",
  "USER": "akhmadyunusf"
 },
 {
  "CREATED_AT": "Mon Jan 25 12:45:02 +0000 2021",
  "ID_STR": "1353685309301485572",
  "FULL_TEXT": "@danawallet @barbar_crypto Cdm aku dongg",
  "USER": "bbyzeuss"
 },
 {
  "CREATED_AT": "Mon Jan 25 12:42:21 +0000 2021",
  "ID_STR": "1353684632261193729",
  "FULL_TEXT": "@IKumalaningrum @danawallet Gua punyanya rekening bri",
  "USER": "gasadarsadar"
 },
 {
  "CREATED_AT": "Mon Jan 25 12:30:25 +0000 2021",
  "ID_STR": "1353681628258652162",
  "FULL_TEXT": "@Deddy1379 @danawallet @BANKBRI_ID aku nanya ke cs nya katanya cuma lagi perbaikan sistem doang itu",
  "USER": "NataliAjeng"
 },
 {
  "CREATED_AT": "Mon Jan 25 12:28:26 +0000 2021",
  "ID_STR": "1353681130743070722",
  "FULL_TEXT": "kayaknya udah bayar bubble tp saldo @danawallet belum berkurang :/",
  "USER": "earthtotaemin"
 },
 {
  "CREATED_AT": "Mon Jan 25 12:23:06 +0000 2021",
  "ID_STR": "1353679787911376896",
  "FULL_TEXT": "@danawallet min. Kok gak dibalas DM nya",
  "USER": "BinsarChairul"
 },
 {
  "CREATED_AT": "Mon Jan 25 12:18:33 +0000 2021",
  "ID_STR": "1353678645412335619",
  "FULL_TEXT": "@gasadarsadar @danawallet kenapa gak lewat bca atau alfa aja dulu ka?",
  "USER": "IKumalaningrum"
 },
 {
  "CREATED_AT": "Mon Jan 25 12:16:58 +0000 2021",
  "ID_STR": "1353678246118707200",
  "FULL_TEXT": "@gresisaputri22 @danawallet kayanya emang karna lagi perbaikan sistem deh soalnya emang aku juga gabisa, tapi dari bca mah lancar",
  "USER": "ArmeenaIsabella"
 },
 {
  "CREATED_AT": "Mon Jan 25 12:01:50 +0000 2021",
  "ID_STR": "1353674438353457153",
  "FULL_TEXT": "@danawallet balas DM min",
  "USER": "BinsarChairul"
 },
 {
  "CREATED_AT": "Mon Jan 25 12:00:56 +0000 2021",
  "ID_STR": "1353674209482788866",
  "FULL_TEXT": "@danawallet @barbar_crypto Halah bicit, ga selese2 masalahnya udh sebulan lebih dibekuin punya ku. Ga profesional 😒😒 jangan simpen uang kalian di dana",
  "USER": "halo_ulala"
 },
 {
  "CREATED_AT": "Mon Jan 25 11:59:06 +0000 2021",
  "ID_STR": "1353673748998574083",
  "FULL_TEXT": "@danawallet Ternyata banyak ya yg dibekuin, ga profesional banget mengelola uang masyarakat, udh sebulan lebih ga ada PERTANGGUNGJAWABAN @ojkindonesia",
  "USER": "halo_ulala"
 },
 {
  "CREATED_AT": "Mon Jan 25 11:55:46 +0000 2021",
  "ID_STR": "1353672909210804227",
  "FULL_TEXT": "@danawallet Cek DM dong, URGENT",
  "USER": "halo_ulala"
 },
 {
  "CREATED_AT": "Mon Jan 25 11:53:55 +0000 2021",
  "ID_STR": "1353672443424989186",
  "FULL_TEXT": "@AndeiraW @danawallet ya gatau faktanya temen gue dipotong saldonya tp ttp gabisa",
  "USER": "ulotso"
 },
 {
  "CREATED_AT": "Mon Jan 25 11:51:41 +0000 2021",
  "ID_STR": "1353671884525637633",
  "FULL_TEXT": "@us_heri @danawallet kenapa gak coba chat admin dana nya lewat wa aja mas?",
  "USER": "ArmeenaIsabella"
 },
 {
  "CREATED_AT": "Mon Jan 25 11:50:32 +0000 2021",
  "ID_STR": "1353671592744632320",
  "FULL_TEXT": "@readlistensleep @danawallet waduh bahaya juga penipu jaman sekarang, bisa diretas gimana tuh ka ceritanya",
  "USER": "ArmeenaIsabella"
 },
 {
  "CREATED_AT": "Mon Jan 25 11:50:02 +0000 2021",
  "ID_STR": "1353671469209956359",
  "FULL_TEXT": "@danawallet Wokeee siap",
  "USER": "irwaaaaaaaan"
 },
 {
  "CREATED_AT": "Mon Jan 25 11:49:10 +0000 2021",
  "ID_STR": "1353671251122786304",
  "FULL_TEXT": "@presidenbekasi @danawallet wkwkwk ko random banget dah nelpon bilang ditilang?",
  "USER": "AndeiraW"
 },
 {
  "CREATED_AT": "Mon Jan 25 11:47:59 +0000 2021",
  "ID_STR": "1353670949795598338",
  "FULL_TEXT": "@ulotso @danawallet tapi ko temen aku di grup beberapa hari seudah verif vc itu langsung bisa dipake lagi ya",
  "USER": "AndeiraW"
 },
 {
  "CREATED_AT": "Mon Jan 25 11:45:55 +0000 2021",
  "ID_STR": "1353670432054931456",
  "FULL_TEXT": "@mintcrafe @danawallet akun nya dibekuin ya ka? udah dapet vc belum btw?",
  "USER": "AndeiraW"
 },
 {
  "CREATED_AT": "Mon Jan 25 11:32:48 +0000 2021",
  "ID_STR": "1353667129015377921",
  "FULL_TEXT": "@danawallet min. Balas DM. Plis min. Darurat",
  "USER": "BinsarChairul"
 },
 {
  "CREATED_AT": "Mon Jan 25 11:22:03 +0000 2021",
  "ID_STR": "1353664423177535488",
  "FULL_TEXT": "@byjo28 @bintangemon Ditunggu transferannya ya min @danawallet  😍💸💸💸😂",
  "USER": "bndxv"
 },
 {
  "CREATED_AT": "Mon Jan 25 11:21:38 +0000 2021",
  "ID_STR": "1353664318718402560",
  "FULL_TEXT": "@danawallet Waktu itu kan saya udh mau dihubungi. Artinya pengecekan udh selesai, tinggal nunggu antrian aja. Masa iya sampe skrng antriannya gk abis\"!?",
  "USER": "nop6110"
 },
 {
  "CREATED_AT": "Mon Jan 25 11:17:41 +0000 2021",
  "ID_STR": "1353663325322817544",
  "FULL_TEXT": "@mcuzan @IndiHome @danawallet WKAKAKAK PLS CAPEK BGT SM ELU",
  "USER": "juviepages"
 },
 {
  "CREATED_AT": "Mon Jan 25 11:17:04 +0000 2021",
  "ID_STR": "1353663172339621894",
  "FULL_TEXT": "@juviepages @IndiHome @danawallet ayo bales kalo gak mau dibom jupe @danawallet",
  "USER": "mcuzan"
 },
 {
  "CREATED_AT": "Mon Jan 25 11:16:20 +0000 2021",
  "ID_STR": "1353662987446456320",
  "FULL_TEXT": "@mcuzan @IndiHome @danawallet teh bantuinnn, kenapa malah yg merah yang bales 😭😭",
  "USER": "juviepages"
 },
 {
  "CREATED_AT": "Mon Jan 25 11:16:04 +0000 2021",
  "ID_STR": "1353662918852661248",
  "FULL_TEXT": "@danawallet min cek dm saya min",
  "USER": "Gitaa_______"
 },
 {
  "CREATED_AT": "Mon Jan 25 11:14:49 +0000 2021",
  "ID_STR": "1353662603843821571",
  "FULL_TEXT": "@mcuzan @IndiHome @danawallet 4 wkakaka",
  "USER": "juviepages"
 },
 {
  "CREATED_AT": "Mon Jan 25 11:14:20 +0000 2021",
  "ID_STR": "1353662482691186688",
  "FULL_TEXT": "@juviepages @IndiHome @danawallet wkkwkwk brp juta jup",
  "USER": "mcuzan"
 },
 {
  "CREATED_AT": "Mon Jan 25 11:10:11 +0000 2021",
  "ID_STR": "1353661439987351552",
  "FULL_TEXT": "@mcuzan @IndiHome parah banget pelayanannya, udah 1 bulan nih akun pengguna dibekuin tanpa sebab. keren banget pengen gua bom. gausah dibales ya gua makin kesel nanti. @danawallet",
  "USER": "juviepages"
 },
 {
  "CREATED_AT": "Mon Jan 25 10:54:31 +0000 2021",
  "ID_STR": "1353657494443225088",
  "FULL_TEXT": "@danawallet cek dm min",
  "USER": "Gitaa_______"
 },
 {
  "CREATED_AT": "Mon Jan 25 10:47:27 +0000 2021",
  "ID_STR": "1353655718117691392",
  "FULL_TEXT": "@danawallet ADAKAH INFO LAIN YG BISA MEMBUATKU SENANG SELAIN KATA \"NUNGGU\"!? MUAK SEKALI DGN JAWABAN TEMPLATE",
  "USER": "nop6110"
 },
 {
  "CREATED_AT": "Mon Jan 25 10:43:22 +0000 2021",
  "ID_STR": "1353654690672570375",
  "FULL_TEXT": "@danawallet Goblok di peliara",
  "USER": "Sari34422129"
 },
 {
  "CREATED_AT": "Mon Jan 25 10:42:39 +0000 2021",
  "ID_STR": "1353654509830950912",
  "FULL_TEXT": "@danawallet Tdk Adakah Jawaban yg lain",
  "USER": "Sari34422129"
 },
 {
  "CREATED_AT": "Mon Jan 25 10:41:20 +0000 2021",
  "ID_STR": "1353654178791313409",
  "FULL_TEXT": "@danawallet Tambah goblok",
  "USER": "Sari34422129"
 },
 {
  "CREATED_AT": "Mon Jan 25 10:29:33 +0000 2021",
  "ID_STR": "1353651213485522944",
  "FULL_TEXT": "@danawallet Tae kucing goblok",
  "USER": "Sari34422129"
 },
 {
  "CREATED_AT": "Mon Jan 25 10:26:35 +0000 2021",
  "ID_STR": "1353650467369230336",
  "FULL_TEXT": "@danawallet Bongol banar ini Dana ,saldo goe di tahan sdh 2 bln",
  "USER": "Sari34422129"
 },
 {
  "CREATED_AT": "Mon Jan 25 10:21:46 +0000 2021",
  "ID_STR": "1353649253403377664",
  "FULL_TEXT": "@danawallet Min tolong cek DM lagi",
  "USER": "mbauwl"
 },
 {
  "CREATED_AT": "Mon Jan 25 10:20:31 +0000 2021",
  "ID_STR": "1353648940248272896",
  "FULL_TEXT": "@danawallet cek dm coba",
  "USER": "maristaas"
 },
 {
  "CREATED_AT": "Mon Jan 25 10:20:03 +0000 2021",
  "ID_STR": "1353648824279994369",
  "FULL_TEXT": "@danawallet Mimin gak cus cus daritadi 😔💔",
  "USER": "fokusrl"
 },
 {
  "CREATED_AT": "Mon Jan 25 10:16:12 +0000 2021",
  "ID_STR": "1353647854523355137",
  "FULL_TEXT": "RT @maristaas: sampai detik ini @danawallet tidak kunjung menyelesaikan keluhan saya\nterhitung mulai tgl 26 desember 2020 sampai detik ini…",
  "USER": "bal_lone"
 },
 {
  "CREATED_AT": "Mon Jan 25 10:16:10 +0000 2021",
  "ID_STR": "1353647843781697537",
  "FULL_TEXT": "RT @maristaas: saat bertanya di email pun jawabannya hanya tunggu tim resolusi dan selanjutan tidak ada kejelasan dari @danawallet \n\nterhit…",
  "USER": "bal_lone"
 },
 {
  "CREATED_AT": "Mon Jan 25 10:08:21 +0000 2021",
  "ID_STR": "1353645876753780736",
  "FULL_TEXT": "@danawallet cek dm ka",
  "USER": "fokusrl"
 },
 {
  "CREATED_AT": "Mon Jan 25 10:04:54 +0000 2021",
  "ID_STR": "1353645008352493568",
  "FULL_TEXT": "@danawallet cek dm ya min, terimakasih",
  "USER": "halonanaa"
 },
 {
  "CREATED_AT": "Mon Jan 25 10:00:42 +0000 2021",
  "ID_STR": "1353643952017051648",
  "FULL_TEXT": "@danawallet cek dm min makasih",
  "USER": "ctircle"
 },
 {
  "CREATED_AT": "Mon Jan 25 09:54:08 +0000 2021",
  "ID_STR": "1353642301386461184",
  "FULL_TEXT": "saat bertanya di email pun jawabannya hanya tunggu tim resolusi dan selanjutan tidak ada kejelasan dari @danawallet \n\nterhitung 21 hari kerja (31 hari biasa) keluhan tidak kunjung terselesaikan @bank_indonesia @ojkindonesia",
  "USER": "maristaas"
 },
 {
  "CREATED_AT": "Mon Jan 25 09:54:07 +0000 2021",
  "ID_STR": "1353642296126754817",
  "FULL_TEXT": "sampai detik ini @danawallet tidak kunjung menyelesaikan keluhan saya\nterhitung mulai tgl 26 desember 2020 sampai detik ini @danawallet tidak ada kejelasan sama sekali\n\n@bank_indonesia @ojkindonesia",
  "USER": "maristaas"
 },
 {
  "CREATED_AT": "Mon Jan 25 09:52:53 +0000 2021",
  "ID_STR": "1353641986507464704",
  "FULL_TEXT": "@danawallet ngakak bgt, dibilangin wa suruh bales langsung dibales dong tadi 2 jam ngapain ???",
  "USER": "baekgyuwoo"
 },
 {
  "CREATED_AT": "Mon Jan 25 09:46:56 +0000 2021",
  "ID_STR": "1353640490000814085",
  "FULL_TEXT": "@danawallet wa saya dibales dong 2 jam kagak ada jawaban nih",
  "USER": "baekgyuwoo"
 },
 {
  "CREATED_AT": "Mon Jan 25 09:43:39 +0000 2021",
  "ID_STR": "1353639663286644736",
  "FULL_TEXT": "@danawallet udah di DM min",
  "USER": "archiepelagoo"
 },
 {
  "CREATED_AT": "Mon Jan 25 09:42:07 +0000 2021",
  "ID_STR": "1353639278010503170",
  "FULL_TEXT": "@danawallet mana anj lama amat, di wa dianggurin disini jg kagak dijawab",
  "USER": "baekgyuwoo"
 },
 {
  "CREATED_AT": "Mon Jan 25 09:39:02 +0000 2021",
  "ID_STR": "1353638500059410432",
  "FULL_TEXT": "@danawallet udah didm, gausah sok asik udah emosi nih",
  "USER": "baekgyuwoo"
 },
 {
  "CREATED_AT": "Mon Jan 25 09:38:36 +0000 2021",
  "ID_STR": "1353638393247264768",
  "FULL_TEXT": "@danawallet OK noted. Saya akan infokan ke ybs. \nMudah2an ga ada yg kena tipu. Si penipu sudah minta transfer ke bbrp orang dgn no tujuan rekening ini.",
  "USER": "Lucassurya"
 },
 {
  "CREATED_AT": "Mon Jan 25 09:34:19 +0000 2021",
  "ID_STR": "1353637314648399872",
  "FULL_TEXT": "cek dm guk @danawallet",
  "USER": "baekgyuwoo"
 },
 {
  "CREATED_AT": "Mon Jan 25 09:34:01 +0000 2021",
  "ID_STR": "1353637237754224640",
  "FULL_TEXT": "@danawallet mau verifikasi akun, karena foto ktp gajelas melampirkan sim, tapi ditolak terus , kenapa ya :(",
  "USER": "archiepelagoo"
 },
 {
  "CREATED_AT": "Mon Jan 25 09:33:23 +0000 2021",
  "ID_STR": "1353637079557705728",
  "FULL_TEXT": "Hi @danawallet, @WhatsApp teman saya di-hack dan no rekening virtual account @CIMBNiaga dipakai penipu utk tujuan transfer uang. Apakah bisa ditindaklanjuti agar nomor atau rekening virtual diblokir? https://t.co/QEFTCzevG2",
  "USER": "Lucassurya"
 },
 {
  "CREATED_AT": "Mon Jan 25 09:26:07 +0000 2021",
  "ID_STR": "1353635250488807425",
  "FULL_TEXT": "Kelupaan Link Aja gak di isi,, jadi pas BRImo gangguan th bingung tf pake apa!??\nAlhamdulillaah ada @danawallet yg bisa diandalkan.. :)\nPokoknya jangan ngosongin saldo DANA, titik!! https://t.co/EzbR7f8l6O",
  "USER": "evie__yu"
 },
 {
  "CREATED_AT": "Mon Jan 25 09:25:47 +0000 2021",
  "ID_STR": "1353635167567450122",
  "FULL_TEXT": "@danawallet HALO ADMIN. MAU SAMPAI KAPAN UANGKU DITAHAN!?",
  "USER": "nop6110"
 },
 {
  "CREATED_AT": "Mon Jan 25 09:09:54 +0000 2021",
  "ID_STR": "1353631167761666048",
  "FULL_TEXT": "@danawallet kaa tolong dm ku dijwb yaa😭🙏",
  "USER": "aespayay"
 },
 {
  "CREATED_AT": "Mon Jan 25 09:07:44 +0000 2021",
  "ID_STR": "1353630621306736640",
  "FULL_TEXT": "@danawallet Ngomong doang sumpah cape template mulu jawabannya",
  "USER": "jihoonswifeu_"
 },
 {
  "CREATED_AT": "Mon Jan 25 09:03:18 +0000 2021",
  "ID_STR": "1353629506343292932",
  "FULL_TEXT": "@danawallet MAKAN TUH DUIT GUE YG LO TAHAN ANJ , BISA²NYA TIAP HARI BIKIN GUE GABISA TIDUR",
  "USER": "jihoonswifeu_"
 },
 {
  "CREATED_AT": "Mon Jan 25 08:57:30 +0000 2021",
  "ID_STR": "1353628049418244096",
  "FULL_TEXT": "RT @kixlau: ⚠️ HELP RT PLEASE DUIT SAYA DITAHAN TANPA ALASAN OLEH @danawallet  TANPA KEJELASAN DAN ESTIMASI ⚠️\n\nTiap hari saya chat di wa,…",
  "USER": "edz_akbr"
 },
 {
  "CREATED_AT": "Mon Jan 25 08:29:30 +0000 2021",
  "ID_STR": "1353621003004383232",
  "FULL_TEXT": "@imanlagi selama ini pake @danawallet bang 10kali mayan sebulan bebas biaya...",
  "USER": "tigiRED"
 },
 {
  "CREATED_AT": "Mon Jan 25 08:18:26 +0000 2021",
  "ID_STR": "1353618215633477632",
  "FULL_TEXT": "@danawallet cek dm tolooongg uangku nyangkuttt 😱",
  "USER": "tammaginary"
 },
 {
  "CREATED_AT": "Mon Jan 25 08:15:36 +0000 2021",
  "ID_STR": "1353617505340674048",
  "FULL_TEXT": "@danawallet pipipipip cekdm laaaaaah",
  "USER": "unniemiskin"
 },
 {
  "CREATED_AT": "Mon Jan 25 08:12:10 +0000 2021",
  "ID_STR": "1353616637664976897",
  "FULL_TEXT": "@danawallet Min bales lagi yaw, syudah ku lengkapi datanya😉",
  "USER": "mbauwl"
 },
 {
  "CREATED_AT": "Mon Jan 25 08:08:48 +0000 2021",
  "ID_STR": "1353615792676376576",
  "FULL_TEXT": "@danawallet tolong baca DM.",
  "USER": "IndahRahmahAzm1"
 },
 {
  "CREATED_AT": "Mon Jan 25 08:00:11 +0000 2021",
  "ID_STR": "1353613622572793856",
  "FULL_TEXT": "@danawallet Ka bs bantu verif akun g",
  "USER": "ibpartnerbisnis"
 },
 {
  "CREATED_AT": "Mon Jan 25 07:57:59 +0000 2021",
  "ID_STR": "1353613068400435201",
  "FULL_TEXT": "@danawallet Udah ku bales lagi yaa min, thanks fast responnya loh. Jgn lupa bales lagi yaa min",
  "USER": "mbauwl"
 },
 {
  "CREATED_AT": "Mon Jan 25 07:54:02 +0000 2021",
  "ID_STR": "1353612076074196993",
  "FULL_TEXT": "@danawallet Min tolong cek DM yaa, mohon dibantu",
  "USER": "mbauwl"
 },
 {
  "CREATED_AT": "Mon Jan 25 07:02:50 +0000 2021",
  "ID_STR": "1353599189578436608",
  "FULL_TEXT": "@danawallet @fokusrl Cek DM ya min",
  "USER": "hsaniya407"
 },
 {
  "CREATED_AT": "Mon Jan 25 06:56:23 +0000 2021",
  "ID_STR": "1353597569797025792",
  "FULL_TEXT": "@danawallet cek dm min",
  "USER": "fokusrl"
 },
 {
  "CREATED_AT": "Mon Jan 25 06:41:07 +0000 2021",
  "ID_STR": "1353593724605882368",
  "FULL_TEXT": "@danawallet Cek dm kak",
  "USER": "unniemiskin"
 },
 {
  "CREATED_AT": "Mon Jan 25 06:26:14 +0000 2021",
  "ID_STR": "1353589979876794368",
  "FULL_TEXT": "@danawallet iyaaaww 😌",
  "USER": "fadheelwisnu"
 },
 {
  "CREATED_AT": "Mon Jan 25 06:23:01 +0000 2021",
  "ID_STR": "1353589171969908736",
  "FULL_TEXT": "Pipipipip min saya mau laporin tindak penipuan dr nomor dana 082175223191 yang mengaku teman saya @danawallet",
  "USER": "unniemiskin"
 },
 {
  "CREATED_AT": "Mon Jan 25 06:19:41 +0000 2021",
  "ID_STR": "1353588332710621184",
  "FULL_TEXT": "@ojkindonesia @danawallet @bank_indonesia Okeee terima kasih admin",
  "USER": "goldennthing"
 },
 {
  "CREATED_AT": "Mon Jan 25 06:13:23 +0000 2021",
  "ID_STR": "1353586745816666112",
  "FULL_TEXT": "@danawallet min ada yang baru di DM 👀",
  "USER": "fadheelwisnu"
 },
 {
  "CREATED_AT": "Mon Jan 25 06:07:23 +0000 2021",
  "ID_STR": "1353585238031572994",
  "FULL_TEXT": "@goldennthing Halo untuk @danawallet merupakan penyelenggara jasa sistem pembayaran yang berada di bawah pengawasan @bank_indonesia. Silakan menyampaikan pengaduanmu ke Bank Indonesia ya.",
  "USER": "ojkindonesia"
 },
 {
  "CREATED_AT": "Mon Jan 25 05:47:32 +0000 2021",
  "ID_STR": "1353580243207008257",
  "FULL_TEXT": "@danawallet min plisss cek dm dong. Uda nelp cs ga ada yg angkat, sibuk terus. Chat watsap juga ga ada yg bales\" lama banget.",
  "USER": "ihatemymoood"
 },
 {
  "CREATED_AT": "Mon Jan 25 05:36:56 +0000 2021",
  "ID_STR": "1353577571858870280",
  "FULL_TEXT": "RT @dongqiss: ‼️‼️‼️ HELP RT PLEASE @danawallet NAHAN UANG CUSTOMER SECARA SEPIHAK TANPA ALASAN YANG JELAS ‼️‼️‼️\n\ndana saya dibekukan sama…",
  "USER": "xygracejk"
 },
 {
  "CREATED_AT": "Mon Jan 25 05:34:02 +0000 2021",
  "ID_STR": "1353576843027181568",
  "FULL_TEXT": "Min @danawallet, kok saya gagal terus yak masukin kartu debit baru, padahal dari pihak bank kartunya ga bermasalah",
  "USER": "ahmadfaiqrs"
 },
 {
  "CREATED_AT": "Mon Jan 25 05:09:21 +0000 2021",
  "ID_STR": "1353570630575120387",
  "FULL_TEXT": "@danawallet boleh cek dm kak?",
  "USER": "kihyion"
 },
 {
  "CREATED_AT": "Mon Jan 25 05:06:05 +0000 2021",
  "ID_STR": "1353569808793489409",
  "FULL_TEXT": "@danawallet Cek dm sayang 😘",
  "USER": "pakoemis"
 },
 {
  "CREATED_AT": "Mon Jan 25 05:03:13 +0000 2021",
  "ID_STR": "1353569087050248194",
  "FULL_TEXT": "@danawallet uda w bales",
  "USER": "luvteared"
 },
 {
  "CREATED_AT": "Mon Jan 25 04:57:16 +0000 2021",
  "ID_STR": "1353567593387315201",
  "FULL_TEXT": "@danawallet cdm kk 😚😚😚 danaku masi gabisa dipake 😙😙😙😙",
  "USER": "luvteared"
 },
 {
  "CREATED_AT": "Mon Jan 25 04:56:20 +0000 2021",
  "ID_STR": "1353567358049079296",
  "FULL_TEXT": "@danawallet Kak mau tanya saya kan punya 2 nomor aktif, bisa gak di registrasi supaya punya 2 akun DANA di nomor berbeda?! Cc: @danasupport",
  "USER": "pakoemis"
 },
 {
  "CREATED_AT": "Mon Jan 25 04:51:57 +0000 2021",
  "ID_STR": "1353566254569689089",
  "FULL_TEXT": "@danawallet cek dm qaqa",
  "USER": "_septy29"
 },
 {
  "CREATED_AT": "Mon Jan 25 04:18:42 +0000 2021",
  "ID_STR": "1353557883883937793",
  "FULL_TEXT": "@danawallet Min cek dm please",
  "USER": "blanktaegf"
 },
 {
  "CREATED_AT": "Mon Jan 25 04:15:43 +0000 2021",
  "ID_STR": "1353557134483447809",
  "FULL_TEXT": "Admin @danawallet yang tersayang, DANA lagi error ya? Saya buka menu eMAS \"Lodaing Failed\" https://t.co/2SZca7r8ML",
  "USER": "DURI4N"
 },
 {
  "CREATED_AT": "Mon Jan 25 04:10:31 +0000 2021",
  "ID_STR": "1353555825797730304",
  "FULL_TEXT": "@xrzk98 @danawallet belum di \"OK\" ?",
  "USER": "Syaifan_"
 },
 {
  "CREATED_AT": "Mon Jan 25 04:09:42 +0000 2021",
  "ID_STR": "1353555621497368576",
  "FULL_TEXT": "@danawallet Min, cek DM saya. Top up di Alfamart berhasil dan sudah keluar struknya juga. Tapi di akun dana belum ada transaksi masukk. Mohon kerjasamanya agar segera membalas DM saya.",
  "USER": "markeushin"
 },
 {
  "CREATED_AT": "Mon Jan 25 04:07:58 +0000 2021",
  "ID_STR": "1353555183398084609",
  "FULL_TEXT": "@xrzk98 @danawallet belum di ok itu",
  "USER": "fanisheku_"
 },
 {
  "CREATED_AT": "Mon Jan 25 03:54:55 +0000 2021",
  "ID_STR": "1353551899836911616",
  "FULL_TEXT": "@xrzk98 @danawallet itu belum berhasil, apa sudah kepotong ?",
  "USER": "Meliodaafu"
 },
 {
  "CREATED_AT": "Mon Jan 25 03:52:40 +0000 2021",
  "ID_STR": "1353551333471604736",
  "FULL_TEXT": "@younaprill @xrzk98 @danawallet Belum, blm selesai proses trf nya",
  "USER": "Arsen_1908_"
 },
 {
  "CREATED_AT": "Mon Jan 25 03:52:07 +0000 2021",
  "ID_STR": "1353551197278359553",
  "FULL_TEXT": "@younaprill @danawallet siapp ka unaaa makasih yaa",
  "USER": "xrzk98"
 }
]